<?xml version="1.0" encoding="UTF-8" standalone="no"?>
<svg width="12px" height="7px" viewBox="0 0 12 7" version="1.1" xmlns="http://www.w3.org/2000/svg" xmlns:xlink="http://www.w3.org/1999/xlink">
    <!-- Generator: sketchtool 41 (35326) - http://www.bohemiancoding.com/sketch -->
    <title>F1ADECF6-BE35-4F9A-A5EF-AF19D658EBCB</title>
    <desc>Created with sketchtool.</desc>
    <defs></defs>
    <g id="Page-1" stroke="none" stroke-width="1" fill="none" fill-rule="evenodd">
        <g id="0.1-Главная-страницы(Витрина)" transform="translate(-1249.000000, -18.000000)" fill="#000">
            <path d="M1249.96152,19.2377838 L1254.76337,24.0396306 C1254.83263,24.108888 1254.91112,24.1435167 1255.00115,24.1435167 C1255.09003,24.1435167 1255.16853,24.108888 1255.23778,24.0396306 L1260.04078,19.2366295 C1260.10889,19.1685264 1260.14352,19.0888803 1260.14352,19 C1260.14352,18.9111197 1260.10889,18.8314736 1260.04078,18.7622162 L1259.52482,18.2474028 C1259.45556,18.1781454 1259.37707,18.1435167 1259.28819,18.1435167 C1259.19815,18.1435167 1259.11966,18.1781454 1259.0504,18.2474028 L1255,22.2978068 L1250.9496,18.2474028 C1250.88034,18.1781454 1250.80185,18.1435167 1250.71297,18.1435167 C1250.62293,18.1435167 1250.54444,18.1781454 1250.47518,18.2474028 L1249.96037,18.7622162 C1249.89111,18.8314736 1249.85648,18.9111197 1249.85648,19 C1249.85764,19.0888803 1249.89227,19.1685264 1249.96152,19.2377838" id="Page-1-Copy"></path>
        </g>
    </g>
</svg>