<?xml version="1.0" encoding="UTF-8" standalone="no"?>
<svg width="19px" height="19px" viewBox="0 0 19 19" version="1.1" xmlns="http://www.w3.org/2000/svg" xmlns:xlink="http://www.w3.org/1999/xlink">
    <!-- Generator: sketchtool 41 (35326) - http://www.bohemiancoding.com/sketch -->
    <title>E16E128C-120D-4C97-9C59-1871E6A215F3</title>
    <desc>Created with sketchtool.</desc>
    <defs></defs>
    <g id="Page-1" stroke="none" stroke-width="1" fill="none" fill-rule="evenodd" opacity="0.598064366">
        <g id="0.1-Главная-страницы(Витрина)" transform="translate(-1110.000000, -59.000000)" fill="#989EAF">
            <path d="M1119.16667,74.6666667 C1115.94167,74.6666667 1113.33333,72.0583333 1113.33333,68.8333333 C1113.33333,65.6083333 1115.94167,63 1119.16667,63 C1122.39167,63 1125,65.6083333 1125,68.8333333 C1125,72.0583333 1122.39167,74.6666667 1119.16667,74.6666667 L1119.16667,74.6666667 Z M1126.61667,68 C1126.23333,64.525 1123.475,61.7666667 1120,61.3833333 L1120,59.6666667 L1118.33333,59.6666667 L1118.33333,61.3833333 C1114.85833,61.7666667 1112.1,64.525 1111.71667,68 L1110,68 L1110,69.6666667 L1111.71667,69.6666667 C1112.1,73.1416667 1114.85833,75.9 1118.33333,76.2833333 L1118.33333,78 L1120,78 L1120,76.2833333 C1123.475,75.9 1126.23333,73.1416667 1126.61667,69.6666667 L1128.33333,69.6666667 L1128.33333,68 L1126.61667,68 Z M1119.16667,65.5 C1117.325,65.5 1115.83333,66.9916667 1115.83333,68.8333333 C1115.83333,70.675 1117.325,72.1666667 1119.16667,72.1666667 C1121.00833,72.1666667 1122.5,70.675 1122.5,68.8333333 C1122.5,66.9916667 1121.00833,65.5 1119.16667,65.5 L1119.16667,65.5 Z" id="Page-1"></path>
        </g>
    </g>
</svg>