<?xml version="1.0" encoding="UTF-8" standalone="no"?>
<svg width="22px" height="23px" viewBox="0 0 29 30" version="1.1" xmlns="http://www.w3.org/2000/svg" xmlns:xlink="http://www.w3.org/1999/xlink">
    <!-- Generator: sketchtool 41 (35326) - http://www.bohemiancoding.com/sketch -->
    <title>7D519C56-C1F3-483D-B3C7-7C0AEE4AE397</title>
    <desc>Created with sketchtool.</desc>
    <defs>
        <polygon id="path-1" points="5.76923077e-05 29.4230769 28.08 29.4230769 28.08 0.280961538 5.76923077e-05 0.280961538"></polygon>
    </defs>
    <g id="Page-1" stroke="none" stroke-width="1" fill="none" fill-rule="evenodd">
        <g id="0.1-Главная-страница-категории" transform="translate(-565.000000, -277.000000)">
            <g id="Категории" transform="translate(0.000000, 40.000000)">
                <g id="Page-1" transform="translate(565.000000, 237.000000)">
                    <polygon id="Fill-1" fill="#FCCF5E" points="1.85780769 5.59823077 1.85780769 12.3713077 1.15569231 12.8270769 1.15569231 16.2216923 6.33876923 16.2216923 6.33876923 12.7111154 5.81434615 12.3713077 5.81434615 8.30226923"></polygon>
                    <polygon id="Fill-2" fill="#435A8E" points="0.766730769 29.0142692 7.01711538 29.0142692 7.01711538 16.626 0.766730769 16.626"></polygon>
                    <g id="Group-16" transform="translate(0.000000, 0.296192)">
                        <path d="M20.0656731,6.44475 L10.9277885,6.44475 L10.9277885,1.91475 C10.9277885,1.22590385 11.4856731,0.668019231 12.1745192,0.668019231 L18.8189423,0.668019231 C19.5077885,0.668019231 20.0656731,1.22590385 20.0656731,1.91475 L20.0656731,6.44475 Z" id="Fill-3" fill="#FCCF5E"></path>
                        <path d="M5.32926923,7.67492308 C5.32926923,7.67492308 6.21773077,6.33819231 9.12484615,6.44492308 C12.0319615,6.55107692 23.4371538,6.44492308 23.4371538,6.44492308 C23.4371538,6.44492308 25.8406154,6.25396154 26.5675385,10.4724231 C27.2944615,14.6914615 28.6750385,28.7176154 23.2969615,28.7176154 L7.01734615,28.7176154 L7.01734615,16.3299231 L6.33888462,15.3953077 L6.33888462,12.4149231 L5.81388462,12.0751154 L5.81388462,8.00607692 L5.32926923,7.67492308 Z" id="Fill-5" fill="#FCCF5E"></path>
                        <path d="M19.1620385,17.6993654 C19.1620385,20.9964808 17.5212692,23.6687885 15.4968462,23.6687885 C13.4724231,23.6687885 11.8310769,20.9964808 11.8310769,17.6993654 C11.8310769,14.40225 13.4724231,11.7299423 15.4968462,11.7299423 C17.5212692,11.7299423 19.1620385,14.40225 19.1620385,17.6993654" id="Fill-7" fill="#435A8E"></path>
                        <g id="Group-11">
                            <mask id="mask-2" fill="white">
                                <use xlink:href="#path-1"></use>
                            </mask>
                            <g id="Clip-10"></g>
                            <path d="M25.4608269,26.8373654 C25.1694808,27.6883269 24.3565962,28.2600577 23.4369808,28.2600577 L7.75217308,28.2600577 L7.75217308,16.5508269 C7.75217308,16.0483269 7.42563462,15.6312115 6.97678846,15.4725577 L6.97678846,12.6317885 C6.97678846,12.26025 6.77775,11.9487115 6.49217308,11.7537115 L6.49217308,7.90101923 C6.49217308,7.76025 6.42871154,7.63621154 6.33871154,7.53178846 C6.68832692,7.28948077 7.10428846,7.13832692 7.55601923,7.13832692 L10.9904423,7.13832692 L20.0025577,7.13832692 L23.4369808,7.13832692 C24.3565962,7.13832692 25.1694808,7.71005769 25.4608269,8.56101923 C26.4133269,11.3475577 26.9169808,14.5079423 26.9169808,17.6994808 C26.9169808,20.8910192 26.4133269,24.0514038 25.4608269,26.8373654 L25.4608269,26.8373654 Z M1.15563462,16.5583269 L1.85601923,16.5571731 C1.85659615,16.5571731 1.85717308,16.55775 1.85775,16.55775 L5.89448077,16.55775 C5.90486538,16.55775 5.91294231,16.5519808 5.92332692,16.5514038 L6.58909615,16.5508269 L6.58909615,28.2600577 L1.16255769,28.2669808 L1.15563462,16.5583269 Z M2.42198077,6.05832692 L5.32909615,8.19525 L5.32909615,11.5489038 L2.42198077,11.5489038 L2.42198077,6.05832692 Z M1.93563462,15.39525 L1.85775,12.7119808 L5.81428846,12.7119808 L5.81428846,15.39525 L1.93563462,15.39525 Z M11.5719808,3.06178846 C11.5719808,2.16986538 12.2983269,1.44351923 13.19025,1.44351923 L17.8033269,1.44351923 C18.6958269,1.44351923 19.4210192,2.16986538 19.4210192,3.06178846 L19.4210192,5.97582692 L11.5719808,5.97582692 L11.5719808,3.06178846 Z M26.5610192,8.18486538 C26.1092885,6.86313462 24.8539038,5.97582692 23.4369808,5.97582692 L20.5840962,5.97582692 L20.5840962,3.06178846 C20.5840962,1.52832692 19.3367885,0.280442308 17.8033269,0.280442308 L13.19025,0.280442308 C11.6567885,0.280442308 10.4094808,1.52832692 10.4094808,3.06178846 L10.4094808,5.97582692 L7.55601923,5.97582692 C6.73275,5.97582692 5.96717308,6.27813462 5.37986538,6.78986538 L2.18486538,4.44121154 C2.00890385,4.31140385 1.77409615,4.29351923 1.57851923,4.39101923 C1.38236538,4.49025 1.25948077,4.69044231 1.25948077,4.90967308 L1.25948077,11.7537115 C0.974480769,11.9487115 0.774865385,12.2608269 0.774865385,12.6317885 L0.774865385,15.4725577 C0.326596154,15.6312115 5.76923077e-05,16.0483269 5.76923077e-05,16.5508269 L5.76923077e-05,28.2669808 C5.76923077e-05,28.9044808 0.518134615,29.4231346 1.15563462,29.4231346 L6.59601923,29.4231346 C6.71948077,29.4231346 6.83198077,29.3885192 6.94390385,29.35275 C7.14351923,29.3919808 7.34601923,29.4231346 7.55601923,29.4231346 L23.4369808,29.4231346 C24.8539038,29.4231346 26.1092885,28.5358269 26.5610192,27.2135192 C27.5550577,24.3075577 28.0800577,21.0173654 28.0800577,17.6994808 C28.0800577,14.3810192 27.5550577,11.0914038 26.5610192,8.18486538 L26.5610192,8.18486538 Z" id="Fill-9" fill="#02113D" mask="url(#mask-2)"></path>
                        </g>
                        <path d="M15.4966731,4.31428846 C15.18975,4.31428846 14.9393654,4.06390385 14.9393654,3.75698077 C14.9393654,3.44948077 15.18975,3.19967308 15.4966731,3.19967308 C15.8035962,3.19967308 16.0539808,3.44948077 16.0539808,3.75698077 C16.0539808,4.06390385 15.8035962,4.31428846 15.4966731,4.31428846 M15.4966731,2.03717308 C14.5476346,2.03717308 13.7762885,2.80851923 13.7762885,3.75698077 C13.7762885,4.70544231 14.5476346,5.47736538 15.4966731,5.47736538 C16.4457115,5.47736538 17.2170577,4.70544231 17.2170577,3.75698077 C17.2170577,2.80851923 16.4457115,2.03717308 15.4966731,2.03717308" id="Fill-12" fill="#02113D"></path>
                        <path d="M15.4966731,23.3233269 C13.6499423,23.3233269 12.0905192,20.7479423 12.0905192,17.6994808 C12.0905192,14.6510192 13.6499423,12.0756346 15.4966731,12.0756346 C17.3434038,12.0756346 18.9028269,14.6510192 18.9028269,17.6994808 C18.9028269,20.7479423 17.3434038,23.3233269 15.4966731,23.3233269 M15.4966731,10.9125577 C12.9345577,10.9125577 10.9274423,13.8935192 10.9274423,17.6994808 C10.9274423,21.5054423 12.9345577,24.4864038 15.4966731,24.4864038 C18.0587885,24.4864038 20.0659038,21.5054423 20.0659038,17.6994808 C20.0659038,13.8935192 18.0587885,10.9125577 15.4966731,10.9125577" id="Fill-14" fill="#02113D"></path>
                    </g>
                </g>
            </g>
        </g>
    </g>
</svg>