<?xml version="1.0" encoding="UTF-8" standalone="no"?>
<svg width="17px" height="23px" viewBox="0 0 23 32" version="1.1" xmlns="http://www.w3.org/2000/svg" xmlns:xlink="http://www.w3.org/1999/xlink">
    <!-- Generator: sketchtool 41 (35326) - http://www.bohemiancoding.com/sketch -->
    <title>A9AE4D06-4D68-451F-9D71-302C91D66BED</title>
    <desc>Created with sketchtool.</desc>
    <defs>
        <polygon id="path-1" points="22.4815686 31.372298 22.4815686 0.188611765 6.2745098e-05 0.188611765 6.2745098e-05 31.372298"></polygon>
    </defs>
    <g id="Page-1" stroke="none" stroke-width="1" fill="none" fill-rule="evenodd">
        <g id="0.1-Главная-страница-категории" transform="translate(-568.000000, -226.000000)">
            <g id="Категории" transform="translate(0.000000, 40.000000)">
                <g id="Электроника" transform="translate(568.000000, 186.000000)">
                    <path d="M20.034949,31.3223529 L2.22663529,31.3223529 C1.38208627,31.3223529 0.696909804,30.6378039 0.696909804,29.7926275 L0.696909804,2.816 C0.696909804,1.97082353 1.38208627,1.28627451 2.22663529,1.28627451 L20.034949,1.28627451 C20.879498,1.28627451 21.5646745,1.97082353 21.5646745,2.816 L21.5646745,29.7926275 C21.5646745,30.6378039 20.879498,31.3223529 20.034949,31.3223529" id="Fill-1" fill="#435A8E"></path>
                    <path d="M18.6509176,26.3277176 L3.81483922,26.3277176 C3.34174118,26.3277176 2.95899608,25.9443451 2.95899608,25.4718745 L2.95899608,4.25524706 C2.95899608,3.78214902 3.34174118,3.39877647 3.81483922,3.39877647 L18.6509176,3.39877647 C19.1240157,3.39877647 19.5067608,3.78214902 19.5067608,4.25524706 L19.5067608,25.4718745 C19.5067608,25.9443451 19.1240157,26.3277176 18.6509176,26.3277176" id="Fill-3" fill="#FCCF5E"></path>
                    <g id="Group-7" transform="translate(0.000000, 0.438902)">
                        <mask id="mask-2" fill="white">
                            <use xlink:href="#path-1"></use>
                        </mask>
                        <g id="Clip-6"></g>
                        <path d="M21.2166902,27.526651 C21.2166902,28.9503373 20.0590431,30.1079843 18.6353569,30.1079843 L3.84633725,30.1079843 C2.42327843,30.1079843 1.26437647,28.9503373 1.26437647,27.526651 L1.26437647,4.03488627 C1.26437647,2.61182745 2.42327843,1.45292549 3.84633725,1.45292549 L18.6353569,1.45292549 C20.0590431,1.45292549 21.2166902,2.61182745 21.2166902,4.03488627 L21.2166902,27.526651 Z M18.6353569,0.188611765 L3.84633725,0.188611765 C1.72555294,0.188611765 6.2745098e-05,1.91410196 6.2745098e-05,4.03488627 L6.2745098e-05,27.526651 C6.2745098e-05,29.6474353 1.72555294,31.372298 3.84633725,31.372298 L18.6353569,31.372298 C20.7561412,31.372298 22.4816314,29.6474353 22.4816314,27.526651 L22.4816314,4.03488627 C22.4816314,1.91410196 20.7561412,0.188611765 18.6353569,0.188611765 L18.6353569,0.188611765 Z" id="Fill-5" fill="#02113D" mask="url(#mask-2)"></path>
                    </g>
                    <path d="M17.968502,25.7103686 L4.51281569,25.7103686 C4.01901176,25.7103686 3.61744314,25.3081725 3.61744314,24.8143686 L3.61744314,4.89593725 C3.61744314,4.40150588 4.01901176,4.00056471 4.51281569,4.00056471 L13.872502,4.00056471 L12.2775216,5.59491765 C12.0303059,5.84150588 12.0303059,6.24181961 12.2775216,6.48903529 C12.4011294,6.61264314 12.5630118,6.67413333 12.7242667,6.67413333 C12.886149,6.67413333 13.0480314,6.61264314 13.1716392,6.48903529 L15.6607373,4.00056471 L17.789051,4.00056471 L12.6897569,9.09923137 C12.4431686,9.34644706 12.4431686,9.74613333 12.6897569,9.99334902 C12.8133647,10.1169569 12.9752471,10.1784471 13.1371294,10.1784471 C13.2990118,10.1784471 13.4608941,10.1169569 13.5838745,9.99334902 L18.8337569,4.74346667 C18.8431686,4.79491765 18.864502,4.84197647 18.864502,4.89593725 L18.864502,6.86989804 L16.3754039,9.35899608 C16.1281882,9.60621176 16.1281882,10.0065255 16.3754039,10.2531137 C16.4990118,10.3767216 16.6608941,10.4388392 16.822149,10.4388392 C16.9840314,10.4388392 17.1459137,10.3767216 17.2695216,10.2531137 L18.864502,8.65813333 L18.864502,24.8143686 C18.864502,25.3081725 18.4623059,25.7103686 17.968502,25.7103686 M17.968502,2.73562353 L4.51281569,2.73562353 C3.32128627,2.73562353 2.35250196,3.70440784 2.35250196,4.89593725 L2.35250196,24.8143686 C2.35250196,26.0052706 3.32128627,26.9753098 4.51281569,26.9753098 L17.968502,26.9753098 C19.1594039,26.9753098 20.1294431,26.0052706 20.1294431,24.8143686 L20.1294431,4.89593725 C20.1294431,3.70440784 19.1594039,2.73562353 17.968502,2.73562353" id="Fill-8" fill="#02113D"></path>
                    <path d="M11.2409098,27.7127529 C10.7722039,27.7127529 10.3925961,28.0923608 10.3925961,28.5610667 C10.3925961,29.0297725 10.7722039,29.4093804 11.2409098,29.4093804 C11.7096157,29.4093804 12.0892235,29.0297725 12.0892235,28.5610667 C12.0892235,28.0923608 11.7096157,27.7127529 11.2409098,27.7127529" id="Fill-10" fill="#02113D"></path>
                </g>
            </g>
        </g>
    </g>
</svg>