<?xml version="1.0" encoding="UTF-8" standalone="no"?>
<svg width="21px" height="23px" viewBox="0 0 21 23" version="1.1" xmlns="http://www.w3.org/2000/svg" xmlns:xlink="http://www.w3.org/1999/xlink">
    <!-- Generator: sketchtool 41 (35326) - http://www.bohemiancoding.com/sketch -->
    <title>8F5232E1-801F-4EAB-93CD-1869AC2161E7</title>
    <desc>Created with sketchtool.</desc>
    <defs>
        <polygon id="path-1" points="20.9535131 22.3829797 0 22.3829797 0 0.373348101 20.9535131 0.373348101"></polygon>
    </defs>
    <g id="Page-1" stroke="none" stroke-width="1" fill="none" fill-rule="evenodd">
        <g id="1.0-Категория-товаров-Основная-выдача" transform="translate(-270.000000, -133.000000)">
            <g id="Мужская-одежда" transform="translate(270.000000, 133.500000)">
                <path d="M5.47501113,2.68089901 C5.47501113,2.68089901 1.37713521,3.16974329 1.11391137,6.92918856 L0.850687526,10.6886338 L0.36184325,20.0500913 L3.78464851,20.0500913 L3.78464851,22.0050207 L17.0922253,22.0050207 L17.0922253,20.0124878 L20.5884467,20.0124878 L19.7987752,7.0804975 C19.7987752,7.0804975 19.4746696,3.18988797 15.5128822,2.68089901 L13.7459698,1.02679681 L7.01630311,0.838779781 L5.47501113,2.68089901 Z" id="Fill-1" fill="#FCCF5E"></path>
                <polygon id="Fill-3" fill="#435A8E" points="10.3814498 3.6396068 8.40010845 5.25968687 10.3671247 6.79784523 12.355181 5.25968687"></polygon>
                <polygon id="Fill-5" fill="#435A8E" points="10.3673485 7.75717974 8.39988462 17.3433623 10.3673485 19.2606883 12.3549571 17.4557248"></polygon>
                <g id="Group-9" transform="translate(0.000000, 0.074356)">
                    <mask id="mask-2" fill="white">
                        <use xlink:href="#path-1"></use>
                    </mask>
                    <g id="Clip-8"></g>
                    <path d="M16.6465801,8.06745261 L16.6465801,21.480677 L4.16672597,21.480677 L4.16672597,8.06745261 C4.16672597,7.81810621 3.96527915,7.61621174 3.71593276,7.61621174 C3.46658636,7.61621174 3.26469189,7.81810621 3.26469189,8.06745261 L3.26469189,19.480534 L0.947158169,19.480534 C1.03848073,17.6267756 1.37825436,10.7887753 1.6137233,7.19988831 C1.82815225,3.928392 4.48501194,3.23183367 5.26796857,3.09753579 L7.71308527,5.75931974 C7.80172187,5.85556655 7.92303762,5.90525677 8.04524869,5.90525677 C8.14552444,5.90525677 8.24624785,5.87212996 8.32951253,5.8040857 L8.45082828,5.70560059 L9.91736111,7.07991554 L8.02913295,17.0430275 C8.00272103,17.1822496 8.04301039,17.3259483 8.13836189,17.4307007 L10.0333049,19.517242 C10.1165696,19.6090123 10.2334088,19.6622837 10.3574105,19.6649697 L10.367259,19.6649697 C10.4872318,19.6649697 10.6031756,19.6170701 10.6877833,19.5311195 L12.583174,17.6137934 C12.6861357,17.5094888 12.7326923,17.3613134 12.706728,17.217167 L10.8928114,7.07588661 L12.2729459,5.72753591 L12.3387519,5.78752229 C12.517368,5.94957507 12.792231,5.94465081 12.9614464,5.77274953 L15.6751588,3.05993239 C16.444238,3.18617239 19.1234807,3.86258604 19.3397002,7.16541852 C19.5751692,10.7538578 19.9153905,17.5923058 20.0062654,19.4460642 L17.5490619,19.4460642 L17.5490619,8.06745261 C17.5490619,7.81810621 17.3471674,7.61621174 17.097821,7.61621174 C16.8484746,7.61621174 16.6465801,7.81810621 16.6465801,8.06745261 L16.6465801,8.06745261 Z M12.62794,4.83042608 L11.1811041,3.51162092 L13.761414,1.55131956 L14.8657903,2.59302343 L12.62794,4.83042608 Z M10.4814122,2.90996642 L8.39979509,1.27556125 L12.6337595,1.27556125 L10.4814122,2.90996642 Z M7.14455759,1.43627104 L9.75396536,3.48610432 L8.09046231,4.83624566 L6.05361116,2.61854003 L7.14455759,1.43627104 Z M10.3999382,6.29606359 L9.15768278,5.13170099 L10.4594769,4.07477669 L11.6050378,5.11871886 L10.3999382,6.29606359 Z M10.3941186,9.41087905 L11.7773867,17.1459892 L10.3811365,18.5583552 L8.95713128,16.9902036 L10.3941186,9.41087905 Z M20.9535131,20.3485459 L20.9306824,19.8753697 C20.9262058,19.7898667 20.513016,11.2695617 20.2403913,7.10677512 C19.9758245,3.07515281 16.5225784,2.28592895 15.7181341,2.15655533 L13.8276677,0.373079506 L6.89789715,0.373079506 L5.2178307,2.19415873 C4.38205023,2.33203789 0.975808383,3.13916814 0.713479861,7.14079725 C0.439959849,11.3044791 0.0272177033,19.8243365 0.0227411074,19.9098395 L-8.95319188e-05,20.382568 L3.26469189,20.382568 L3.26469189,21.9319179 C3.26469189,22.1812643 3.46658636,22.3831588 3.71593276,22.3831588 L17.097821,22.3831588 C17.3471674,22.3831588 17.5490619,22.1812643 17.5490619,21.9319179 L17.5490619,20.3485459 L20.9535131,20.3485459 Z" id="Fill-7" fill="#02113D" mask="url(#mask-2)"></path>
                </g>
            </g>
        </g>
    </g>
</svg>