<?xml version="1.0" encoding="UTF-8" standalone="no"?>
<svg width="27px" height="21px" viewBox="0 0 27 21" version="1.1" xmlns="http://www.w3.org/2000/svg" xmlns:xlink="http://www.w3.org/1999/xlink">
    <!-- Generator: sketchtool 41 (35326) - http://www.bohemiancoding.com/sketch -->
    <title>D1F6941B-00A2-44A4-8A3D-F2BE72C87A69</title>
    <desc>Created with sketchtool.</desc>
    <defs>
        <polygon id="path-1" points="0 20.7454281 26.7721727 20.7454281 26.7721727 0.000127904765 0 0.000127904765"></polygon>
    </defs>
    <g id="Page-1" stroke="none" stroke-width="1" fill="none" fill-rule="evenodd">
        <g id="1.0-Категория-товаров-Основная-выдача" transform="translate(-15.000000, -1382.000000)">
            <g id="Категории" transform="translate(15.000000, 137.000000)">
                <g id="Другое" transform="translate(0.000000, 1245.000000)">
                    <mask id="mask-2" fill="white">
                        <use xlink:href="#path-1"></use>
                    </mask>
                    <g id="Clip-2"></g>
                    <path d="M6.19655951,19.885908 L20.5756132,19.885908 L20.5756132,6.90655886 L6.19655951,6.90655886 L6.19655951,19.885908 Z M21.0053732,20.7454281 L5.76722585,20.7454281 C5.52974933,20.7454281 5.33746584,20.5531446 5.33746584,20.315668 L5.33746584,6.47679885 C5.33746584,6.23932233 5.52974933,6.04746519 5.76722585,6.04746519 L21.0053732,6.04746519 C21.2428497,6.04746519 21.4351332,6.23932233 21.4351332,6.47679885 L21.4351332,20.315668 C21.4351332,20.5531446 21.2428497,20.7454281 21.0053732,20.7454281 L21.0053732,20.7454281 Z" id="Fill-1" fill="#2B2B2B" mask="url(#mask-2)"></path>
                    <path d="M6.81476587,6.04746519 L9.50033958,6.04746519 L9.50033958,4.04319752 L6.81476587,4.04319752 L6.81476587,6.04746519 Z M9.93009959,6.90655886 L6.38500586,6.90655886 C6.14752935,6.90655886 5.9556722,6.71427536 5.9556722,6.47679885 L5.9556722,3.61301116 C5.9556722,3.37553465 6.14752935,3.1836775 6.38500586,3.1836775 L9.93009959,3.1836775 C10.1675761,3.1836775 10.3594333,3.37553465 10.3594333,3.61301116 L10.3594333,6.47679885 C10.3594333,6.71427536 10.1675761,6.90655886 9.93009959,6.90655886 L9.93009959,6.90655886 Z" id="Fill-3" fill="#2B2B2B" mask="url(#mask-2)"></path>
                    <path d="M8.58624686,2.86391559 L11.2718206,2.86391559 L11.2718206,0.859647924 L8.58624686,0.859647924 L8.58624686,2.86391559 Z M11.7015806,3.72300926 L8.15648685,3.72300926 C7.91901034,3.72300926 7.72715319,3.53072576 7.72715319,3.29324925 L7.72715319,0.429461565 C7.72715319,0.191985052 7.91901034,0.000127904765 8.15648685,0.000127904765 L11.7015806,0.000127904765 C11.9390571,0.000127904765 12.1313406,0.191985052 12.1313406,0.429461565 L12.1313406,3.29324925 C12.1313406,3.53072576 11.9390571,3.72300926 11.7015806,3.72300926 L11.7015806,3.72300926 Z" id="Fill-4" fill="#2B2B2B" mask="url(#mask-2)"></path>
                    <path d="M10.3594333,6.04746519 L13.045007,6.04746519 L13.045007,4.04319752 L10.3594333,4.04319752 L10.3594333,6.04746519 Z M13.474767,6.90655886 L9.93009959,6.90655886 C9.69262308,6.90655886 9.50033958,6.71427536 9.50033958,6.47679885 L9.50033958,3.61301116 C9.50033958,3.37553465 9.69262308,3.1836775 9.93009959,3.1836775 L13.474767,3.1836775 C13.7122435,3.1836775 13.904527,3.37553465 13.904527,3.61301116 L13.904527,6.47679885 C13.904527,6.71427536 13.7122435,6.90655886 13.474767,6.90655886 L13.474767,6.90655886 Z" id="Fill-5" fill="#2B2B2B" mask="url(#mask-2)"></path>
                    <path d="M14.3403412,6.04725201 L17.4846666,6.04725201 L15.8952367,3.99907038 L14.3403412,6.04725201 Z M18.3625197,6.90677203 L13.4748522,6.90677203 C13.3115605,6.90677203 13.1623383,6.81425425 13.0898589,6.66801647 C13.0173795,6.52177869 13.0335808,6.34740186 13.1324938,6.21736535 L15.5490412,3.03381575 C15.6300475,2.92722845 15.7558205,2.86455511 15.8896942,2.86370241 L15.8913996,2.86370241 C16.0244206,2.86370241 16.1497672,2.9250967 16.2311999,3.02997861 L18.7014673,6.2135282 C18.802512,6.34313837 18.8208451,6.51836789 18.748792,6.66588472 C18.6763127,6.8129752 18.5262378,6.90677203 18.3625197,6.90677203 L18.3625197,6.90677203 Z" id="Fill-6" fill="#2B2B2B" mask="url(#mask-2)"></path>
                    <path d="M19.114557,3.8976419 C18.5219316,3.8976419 18.0405834,4.37984286 18.0405834,4.97204192 C18.0405834,5.56509368 18.5219316,6.04729465 19.114557,6.04729465 C19.7071824,6.04729465 20.1893834,5.56509368 20.1893834,4.97204192 C20.1893834,4.37984286 19.7071824,3.8976419 19.114557,3.8976419 M19.114557,6.90638832 C18.048684,6.90638832 17.1810633,6.03876766 17.1810633,4.97204192 C17.1810633,3.90616888 18.048684,3.03812188 19.114557,3.03812188 C20.1812828,3.03812188 21.0489034,3.90616888 21.0489034,4.97204192 C21.0489034,6.03876766 20.1812828,6.90638832 19.114557,6.90638832" id="Fill-7" fill="#2B2B2B" mask="url(#mask-2)"></path>
                    <path d="M0.429333661,13.2610381 C0.332126039,13.2610381 0.23363937,13.2277829 0.153059369,13.1604197 C-0.0285653975,13.0077867 -0.0520146044,12.7366286 0.100618415,12.5550038 L5.43808425,6.20026874 C5.58986457,6.01949668 5.86187537,5.99519477 6.04350014,6.14782779 C6.2251249,6.30088716 6.24857411,6.57161891 6.09594109,6.75367003 L0.758901605,13.1079787 C0.674058111,13.2090235 0.552122235,13.2610381 0.429333661,13.2610381" id="Fill-8" fill="#2B2B2B" mask="url(#mask-2)"></path>
                    <path d="M26.3425406,13.2610381 C26.2201783,13.2610381 26.0982425,13.2090235 26.013399,13.1079787 L20.6763595,6.75367003 C20.5237265,6.57161891 20.5471757,6.30088716 20.7292268,6.14782779 C20.9104252,5.99519477 21.182436,6.01864398 21.3342163,6.20026874 L26.6716822,12.5550038 C26.8243152,12.7366286 26.800866,13.0077867 26.6188149,13.1604197 C26.5382349,13.2277829 26.4397482,13.2610381 26.3425406,13.2610381" id="Fill-9" fill="#2B2B2B" mask="url(#mask-2)"></path>
                    <path d="M21.0052453,17.7364685 L5.76709794,17.7364685 C5.52962143,17.7364685 5.33733793,17.544185 5.33733793,17.3067085 C5.33733793,17.0692319 5.52962143,16.8769484 5.76709794,16.8769484 L21.0052453,16.8769484 C21.2427218,16.8769484 21.4350053,17.0692319 21.4350053,17.3067085 C21.4350053,17.544185 21.2427218,17.7364685 21.0052453,17.7364685" id="Fill-10" fill="#2B2B2B" mask="url(#mask-2)"></path>
                </g>
            </g>
        </g>
    </g>
</svg>