<?xml version="1.0" encoding="UTF-8" standalone="no"?>
<svg width="21px" height="25px" viewBox="0 0 21 25" version="1.1" xmlns="http://www.w3.org/2000/svg" xmlns:xlink="http://www.w3.org/1999/xlink">
    <!-- Generator: sketchtool 41 (35326) - http://www.bohemiancoding.com/sketch -->
    <title>13E41193-574C-4584-929A-7B9EFB523AA8</title>
    <desc>Created with sketchtool.</desc>
    <defs>
        <polygon id="path-1" points="0.000100769086 24.64605 20.493337 24.64605 20.493337 5e-05 0.000100769086 5e-05 0.000100769086 24.64605"></polygon>
    </defs>
    <g id="Page-1" stroke="none" stroke-width="1" fill="none" fill-rule="evenodd">
        <g id="1.0-Категория-товаров-Основная-выдача" transform="translate(-18.000000, -419.000000)">
            <g id="Категории" transform="translate(15.000000, 137.000000)">
                <g id="Женская-Одежда" transform="translate(3.000000, 282.000000)">
                    <mask id="mask-2" fill="white">
                        <use xlink:href="#path-1"></use>
                    </mask>
                    <g id="Clip-2"></g>
                    <path d="M10.3145,23.63825 C4.385,23.63825 1.872,21.97325 1.14,21.35225 L7.105,11.36525 C7.39,10.80175 7.5825,10.26975 7.7165,9.76525 L12.7575,9.76525 C12.8835,10.26575 13.0645,10.79375 13.331,11.35425 C13.336,11.36475 13.3415,11.37525 13.347,11.38525 L19.3305,21.98975 C18.536,22.48275 16.0605,23.63825 10.3145,23.63825 M6.8985,4.78225 C6.87,4.74875 6.838,4.71875 6.802,4.69325 C6.7585,4.66275 5.861,4.03325 4.9575,3.58375 C4.965,3.56025 4.9705,3.54325 4.9765,3.52875 C5.0045,3.46525 5.0625,3.33825 5.333,2.50675 C5.488,1.57525 6.185,1.21525 6.5965,1.08275 C7.02,1.72725 8.1235,2.99125 10.27,2.99125 C12.403,2.99125 13.4515,1.74525 13.8565,1.08825 C14.27,1.22975 14.9605,1.60825 15.1275,2.58325 C15.379,3.33825 15.419,3.42575 15.438,3.46925 C15.446,3.49125 15.4585,3.52975 15.4885,3.62975 C14.465,4.23775 13.6915,4.66175 13.688,4.66325 C13.6305,4.69475 13.58,4.73725 13.5385,4.78775 C13.4715,4.87075 12.2425,6.44375 12.608,9.00975 L7.873,9.00975 C8.2515,6.45925 6.9685,4.86625 6.8985,4.78225 M10.2355,1.25525 C10.976,1.25525 11.7925,1.18575 12.6365,1.02125 C12.21,1.47675 11.476,1.98375 10.27,1.98375 C9.092,1.98375 8.3365,1.50125 7.878,1.05225 C8.497,1.15875 9.304,1.25525 10.2355,1.25525 M20.4285,21.88425 L14.234,10.90625 C12.802,7.87875 13.9925,5.89125 14.2695,5.49375 C14.543,5.34225 15.364,4.88275 16.344,4.29175 C16.542,4.17275 16.6335,3.93575 16.5665,3.71475 C16.3845,3.10975 16.3815,3.11075 16.361,3.06525 C16.344,3.02525 16.3105,2.94625 16.1025,2.34125 C15.8255,0.68075 14.3775,0.08925 13.6505,0.00775 C13.6425,0.00725 13.636,0.01325 13.6285,0.01275 L13.6245,-0.00025 C13.5455,0.02475 13.4675,0.04325 13.389,0.06575 C13.3725,0.07325 13.353,0.07075 13.337,0.08025 C10.606,0.85175 7.986,0.33525 7.149,0.12775 C7.048,0.04725 6.929,-0.00675 6.791,0.00775 C6.064,0.08925 4.6155,0.68125 4.3585,2.26475 C4.131,2.94625 4.0815,3.06175 4.0555,3.11925 C4.025,3.18775 4.0205,3.18675 3.8715,3.72625 C3.804,3.96925 3.927,4.22525 4.1595,4.32375 C4.9575,4.66425 5.915,5.30675 6.1615,5.47575 C6.417,5.82025 7.753,7.85375 6.223,10.87925 L0.0715,21.17625 C-0.036,21.35575 -0.021,21.58375 0.109,21.74775 C0.2025,21.86625 2.4965,24.64625 10.3145,24.64625 C18.0985,24.64625 20.2575,22.57625 20.3455,22.48825 C20.5055,22.32825 20.5395,22.08125 20.4285,21.88425" id="Fill-1" fill="#2B2B2B" mask="url(#mask-2)"></path>
                </g>
            </g>
        </g>
    </g>
</svg>