<?xml version="1.0" encoding="UTF-8" standalone="no"?>
<svg width="26px" height="30px" viewBox="0 0 26 30" version="1.1" xmlns="http://www.w3.org/2000/svg" xmlns:xlink="http://www.w3.org/1999/xlink">
    <!-- Generator: sketchtool 41 (35326) - http://www.bohemiancoding.com/sketch -->
    <title>38FFC6A8-BDCE-4A55-AB3D-3A0A8791BA84</title>
    <desc>Created with sketchtool.</desc>
    <defs></defs>
    <g id="Page-1" stroke="none" stroke-width="1" fill="none" fill-rule="evenodd">
        <g id="0.1-Главная-страница-категории" transform="translate(-28.000000, -227.000000)">
            <g id="Категории" transform="translate(0.000000, 40.000000)">
                <g id="Для-мальчиков" transform="translate(28.000000, 187.000000)">
                    <path d="M4.96708566,18.8102238 L5.65165137,18.8102238 L5.65165137,19.301614 L19.7202615,19.301614 L19.7202615,18.7341609 L20.7090787,18.7341609 L20.7090787,8.92386341 L25.0434542,8.08777565 L25.0434542,3.75279648 L19.6441987,1.21193485 L16.3366718,1.21193485 C16.3366718,1.21193485 15.5138648,4.52549852 12.546206,4.52549852 C9.57915095,4.52549852 9.23264238,1.21193485 9.23264238,1.21193485 L6.28913056,1.21193485 L0.480584448,3.82885934 L0.480584448,8.39987484 L4.96708566,8.77173769 L4.96708566,18.8102238 Z" id="Fill-1" fill="#FCCF5E"></path>
                    <polygon id="Fill-3" fill="#435A8E" points="12.8629535 7.45723872 13.8728992 9.50429544 16.132449 9.83269381 14.4977013 11.4257881 14.8834486 13.6756791 12.8629535 12.6132138 10.8424584 13.6756791 11.2282058 11.4257881 9.59345802 9.83269381 11.8524041 9.50429544"></polygon>
                    <path d="M14.2998171,11.1088595 C14.1567465,11.2483081 14.0915498,11.449935 14.1253555,11.6473363 L14.3565624,12.9947354 L13.1461971,12.3590673 C13.0574571,12.3119807 12.9608694,12.2890412 12.8630743,12.2890412 C12.7658828,12.2890412 12.6686914,12.3119807 12.5805551,12.3590673 L11.3701898,12.9947354 L11.6013967,11.6473363 C11.6352024,11.449935 11.5700057,11.2483081 11.4269351,11.1088595 L10.4477767,10.1544518 L11.8000053,9.95825789 C11.9980102,9.92928157 12.1694534,9.80552851 12.2575898,9.62563381 L12.8630743,8.399573 L13.4679551,9.62563381 C13.5566951,9.80492483 13.7275347,9.92928157 13.9261432,9.95825789 L15.2783718,10.1544518 L14.2998171,11.1088595 Z M16.6734612,9.12820687 L14.4175334,8.80041218 L13.4087951,6.75637382 C13.3061706,6.54871015 13.0948849,6.41710933 12.8630743,6.41710933 C12.6312636,6.41710933 12.4199779,6.54871015 12.3179571,6.75637382 L11.3086151,8.80041218 L9.05268732,9.12820687 C8.82329141,9.16140892 8.63313426,9.32198606 8.56129712,9.54232687 C8.49006365,9.76206402 8.54922365,10.0035334 8.71523386,10.1653179 L10.3481706,11.7572048 L9.96302691,14.0040775 C9.92378814,14.232266 10.0173575,14.4628693 10.2044963,14.5986958 C10.3916351,14.7363334 10.6409522,14.7538399 10.8449938,14.6451787 L12.8630743,13.5845244 L14.8817583,14.6451787 C14.9698947,14.6922652 15.0676898,14.7152048 15.1642775,14.7152048 C15.2904453,14.7152048 15.4160093,14.675966 15.5216522,14.5986958 C15.708791,14.4628693 15.802964,14.232266 15.7637253,14.0040775 L15.3779779,11.7566012 L17.0109147,10.1653179 C17.1763212,10.0035334 17.2360849,9.76206402 17.1648514,9.54232687 C17.0930142,9.32198606 16.9028571,9.16140892 16.6734612,9.12820687 L16.6734612,9.12820687 Z" id="Fill-5" fill="#02113D"></path>
                    <polygon id="Fill-7" fill="#FCCF5E" points="5.65153064 18.8102238 5.65153064 28.7943793 11.3308906 28.7943793 12.7622004 24.394807 14.1446127 28.5873193 20.3805596 28.5873193 20.3805596 18.7474417"></polygon>
                    <g id="Group-11" transform="translate(0.000000, 0.426193)" fill="#02113D">
                        <path d="M24.5090824,7.42572696 L20.6232363,7.74869227 C20.3075151,7.7752539 20.0648384,8.03845553 20.0648384,8.35478043 L20.0648384,17.7726902 C20.0491428,17.780538 20.0364657,17.7926114 20.0213739,17.8022702 L19.9350486,17.8022702 C19.9187494,17.8004592 19.9048649,17.7926114 19.887962,17.7926114 L5.68111064,17.7926114 C5.67386656,17.7926114 5.66782982,17.7962335 5.66058574,17.7968371 L5.66058574,8.35478043 C5.66058574,8.03845553 5.41851268,7.7752539 5.10279146,7.74869227 L1.21694534,7.42572696 L1.21694534,3.75901432 L6.26486288,1.39442534 L8.967509,1.39442534 C9.24399145,2.65670656 10.2756694,4.36751717 12.8630139,4.36751717 C15.4503584,4.36751717 16.4820363,2.65670656 16.7585188,1.39442534 L19.4611649,1.39442534 L24.5090824,3.75901432 L24.5090824,7.42572696 Z M18.9456277,20.7747584 L19.7310069,20.7747584 L19.7310069,18.8756016 L18.9456277,18.8756016 L18.9456277,20.7747584 Z M19.7310069,27.7598641 L14.498969,27.7598641 L13.4781571,22.2495326 L13.4781571,18.8756016 L17.7292257,18.8756016 L17.7292257,21.3826575 C17.7292257,21.7195073 18.0008788,21.9911604 18.3371249,21.9911604 L19.7310069,21.9911604 L19.7310069,27.7598641 Z M11.2065339,27.7598641 L6.00769798,27.7598641 L6.00769798,21.9911604 L7.4021837,21.9911604 C7.73842982,21.9911604 8.01068655,21.7195073 8.01068655,21.3826575 L8.01068655,18.8756016 L12.2611514,18.8756016 L12.2611514,22.1734698 L11.2065339,27.7598641 Z M6.00769798,20.7747584 L6.79368084,20.7747584 L6.79368084,18.8756016 L6.00769798,18.8756016 L6.00769798,20.7747584 Z M25.3753539,2.82150942 L19.8541563,0.235372285 C19.7732641,0.197340857 19.6857314,0.177419632 19.5963877,0.177419632 L16.2297008,0.177419632 C15.9067355,0.177419632 15.6399118,0.432773509 15.6218016,0.755135141 C15.6079171,1.00022657 15.4135343,3.15111513 12.8630139,3.15111513 C10.3118898,3.15111513 10.117507,1.00022657 10.1042261,0.758757182 C10.0891343,0.433377183 9.82110328,0.177419632 9.49632696,0.177419632 L6.12964003,0.177419632 C6.04029635,0.177419632 5.95216003,0.197340857 5.87187145,0.235372285 L0.350673917,2.82150942 C0.136369836,2.92111554 -6.03673468e-05,3.1360233 -6.03673468e-05,3.37205962 L-6.03673468e-05,7.98533227 C-6.03673468e-05,8.30226084 0.242616367,8.56546247 0.557733917,8.59142043 L4.4441837,8.91438573 L4.4441837,18.4101694 C4.4441837,18.6220588 4.55888166,18.7995388 4.72308084,18.9088037 C4.74481309,18.906389 4.76896003,18.9069926 4.79069227,18.9051816 L4.79069227,28.3677632 C4.79069227,28.7040094 5.06294901,28.9762661 5.39919513,28.9762661 L11.7112049,28.9762661 C12.0033829,28.9762661 12.2551147,28.7686024 12.3088416,28.4806502 L12.8569772,25.5775845 L13.3942465,28.4788392 C13.4479735,28.7673951 13.6991016,28.9762661 13.9924869,28.9762661 L20.3395098,28.9762661 C20.6757559,28.9762661 20.9480126,28.7040094 20.9480126,28.3677632 L20.9480126,18.8756016 L21.0524481,18.8756016 C21.1888784,18.763922 21.2818441,18.6009302 21.2818441,18.4101694 L21.2818441,8.91438573 L25.1676902,8.59142043 C25.4834114,8.56546247 25.7260881,8.30226084 25.7260881,7.98533227 L25.7260881,3.37205962 C25.7260881,3.1360233 25.5890543,2.92111554 25.3753539,2.82150942 L25.3753539,2.82150942 Z" id="Fill-9"></path>
                    </g>
                </g>
            </g>
        </g>
    </g>
</svg>