<?xml version="1.0" encoding="UTF-8" standalone="no"?>
<svg width="40px" height="26px" viewBox="0 0 40 26" version="1.1" xmlns="http://www.w3.org/2000/svg" xmlns:xlink="http://www.w3.org/1999/xlink">
    <!-- Generator: sketchtool 41 (35326) - http://www.bohemiancoding.com/sketch -->
    <title>C6D11C7F-2BD1-4117-ADE1-2F1333A5BBDA</title>
    <desc>Created with sketchtool.</desc>
    <defs>
        <polygon id="path-1" points="39.4869511 25.4222222 0 25.4222222 0 0.387342222 39.4869511 0.387342222"></polygon>
    </defs>
    <g id="Page-1" stroke="none" stroke-width="1" fill="none" fill-rule="evenodd">
        <g id="0.1-Главная-страница-категории" transform="translate(-848.000000, -78.000000)">
            <g id="Категории" transform="translate(0.000000, 40.000000)">
                <g id="Page-1" transform="translate(848.000000, 38.000000)">
                    <path d="M16.10908,17.3822133 C16.10908,21.7635022 12.5569022,25.31568 8.17561333,25.31568 C3.79374667,25.31568 0.242146667,21.7635022 0.242146667,17.3822133 C0.242146667,13.0009244 3.79374667,9.44874667 8.17561333,9.44874667 C12.5569022,9.44874667 16.10908,13.0009244 16.10908,17.3822133" id="Fill-1" fill="#FCCF5E"></path>
                    <path d="M39.1900311,17.3822133 C39.1900311,21.7635022 35.6378533,25.31568 31.2565644,25.31568 C26.8746978,25.31568 23.3230978,21.7635022 23.3230978,17.3822133 C23.3230978,13.0009244 26.8746978,9.44874667 31.2565644,9.44874667 C35.6378533,9.44874667 39.1900311,13.0009244 39.1900311,17.3822133" id="Fill-3" fill="#FCCF5E"></path>
                    <path d="M21.8635733,18.4995778 C21.8635733,19.6707333 20.9142844,20.6194444 19.7437067,20.6194444 C18.5725511,20.6194444 17.6232622,19.6707333 17.6232622,18.4995778 C17.6232622,17.3284222 18.5725511,16.3797111 19.7437067,16.3797111 C20.9142844,16.3797111 21.8635733,17.3284222 21.8635733,18.4995778" id="Fill-5" fill="#435A8E"></path>
                    <g id="Group-9" transform="translate(0.000000, 0.190667)">
                        <mask id="mask-2" fill="white">
                            <use xlink:href="#path-1"></use>
                        </mask>
                        <g id="Clip-8"></g>
                        <path d="M31.2565067,24.2576533 C27.3599733,24.2576533 24.1908622,21.0873867 24.1908622,17.1914311 C24.1908622,14.5313422 25.6693956,12.2121422 27.8464622,11.0068978 L30.4227733,17.4086756 C30.51464,17.6357422 30.73304,17.7738311 30.9629956,17.7738311 C31.0357956,17.7738311 31.1091733,17.7599644 31.18024,17.7316533 C31.4789511,17.6114756 31.6233956,17.2717422 31.5032178,16.9741867 L28.9113067,10.5336978 C29.64624,10.2742756 30.4337511,10.1252089 31.2565067,10.1252089 C35.15304,10.1252089 38.3221511,13.2948978 38.3221511,17.1914311 C38.3221511,21.0873867 35.15304,24.2576533 31.2565067,24.2576533 L31.2565067,24.2576533 Z M20.5323733,15.6048533 C20.2885511,15.5360978 20.0360622,15.4869867 19.7708622,15.4869867 C19.50104,15.4869867 19.2450844,15.5372533 18.9977956,15.60832 L15.0873956,8.71947556 L25.5411289,7.44374222 L20.5323733,15.6048533 Z M19.7708622,19.96592 C18.8568178,19.96592 18.1137956,19.2228978 18.1137956,18.3094311 C18.1137956,17.3953867 18.8568178,16.6517867 19.7708622,16.6517867 C20.0089067,16.6517867 20.2348178,16.7043644 20.4399289,16.7956533 C20.4509067,16.8031644 20.4566844,16.8152978 20.46824,16.8222311 C20.4815289,16.83032 20.4971289,16.8274311 20.5109956,16.8343644 C21.0523733,17.1076533 21.4285067,17.6628978 21.4285067,18.3094311 C21.4285067,19.2228978 20.6843289,19.96592 19.7708622,19.96592 L19.7708622,19.96592 Z M13.30264,10.7226311 L14.1282844,9.38912 L17.9687733,16.1560533 C17.6232622,16.44552 17.3413067,16.8077867 17.1656622,17.2301422 L16.45904,17.2301422 C16.4596178,17.2168533 16.4613511,17.2041422 16.4613511,17.1914311 C16.4613511,14.5665867 15.2220178,12.2306311 13.30264,10.7226311 L13.30264,10.7226311 Z M15.2965511,17.1914311 C15.2965511,17.2041422 15.2948178,17.2168533 15.2948178,17.2301422 L9.27552889,17.2301422 L12.6884622,11.7152533 C14.2785067,13.0117867 15.2965511,14.98432 15.2965511,17.1914311 L15.2965511,17.1914311 Z M8.23090667,24.2576533 C4.33495111,24.2576533 1.16468444,21.0873867 1.16468444,17.1914311 C1.16468444,13.2948978 4.33495111,10.1252089 8.23090667,10.1252089 C9.50259556,10.1252089 10.6933956,10.4678311 11.7253067,11.05832 L7.73517333,17.5057422 C7.62424,17.6854311 7.61904,17.9113422 7.72130667,18.0956533 C7.82415111,18.2799644 8.01944,18.3943644 8.23032889,18.3943644 L15.1867733,18.3943644 C14.6124622,21.71832 11.7160622,24.2576533 8.23090667,24.2576533 L8.23090667,24.2576533 Z M31.2565067,8.96098667 C30.2800622,8.96098667 29.3469511,9.14067556 28.4768178,9.45440889 L26.2465956,3.91294222 L27.1161511,2.87063111 C27.32184,2.62392 27.2883289,2.25818667 27.0433511,2.05192 L25.2239289,0.523697778 C25.1187733,0.435297778 24.9864622,0.387342222 24.8489511,0.387342222 L21.1783289,0.387342222 C20.8565067,0.387342222 20.5959289,0.647342222 20.5959289,0.969164444 C20.5959289,1.29098667 20.8565067,1.55156444 21.1783289,1.55156444 L24.6369067,1.55156444 L25.85024,2.57076444 L25.1297511,3.43512 C24.99224,3.59978667 24.9564178,3.82685333 25.0367289,4.02503111 L25.9218844,6.22405333 L14.7320622,7.58992 L14.7320622,6.50080889 L16.4786844,6.50080889 C16.8005067,6.50080889 17.0610844,6.24080889 17.0610844,5.91898667 C17.0610844,5.59716444 16.8005067,5.33658667 16.4786844,5.33658667 L11.6057067,5.33658667 C11.2838844,5.33658667 11.0233067,5.59716444 11.0233067,5.91898667 C11.0233067,6.24080889 11.2838844,6.50080889 11.6057067,6.50080889 L13.5672622,6.50080889 L13.5672622,8.08218667 L12.3377511,10.0691644 C11.1273067,9.36889778 9.72735111,8.96098667 8.23090667,8.96098667 C3.69188444,8.96098667 -0.000115555556,12.6529867 -0.000115555556,17.1914311 C-0.000115555556,21.7298756 3.69188444,25.4224533 8.23090667,25.4224533 C12.3597067,25.4224533 15.77784,22.36312 16.3631289,18.3943644 L16.9576622,18.3943644 C17.0038844,19.9098756 18.2443733,21.13072 19.7708622,21.13072 C21.3268178,21.13072 22.5927289,19.8648089 22.5927289,18.3094311 C22.5927289,17.4375644 22.1877067,16.6673867 21.5648622,16.14912 L26.6088622,7.93080889 L27.4096622,9.92067556 C24.80504,11.3044533 23.0260622,14.0425422 23.0260622,17.1914311 C23.0260622,21.7298756 26.7180622,25.4224533 31.2565067,25.4224533 C35.7949511,25.4224533 39.4869511,21.7298756 39.4869511,17.1914311 C39.4869511,12.6529867 35.7949511,8.96098667 31.2565067,8.96098667 L31.2565067,8.96098667 Z" id="Fill-7" fill="#02113D" mask="url(#mask-2)"></path>
                    </g>
                </g>
            </g>
        </g>
    </g>
</svg>