<?xml version="1.0" encoding="UTF-8" standalone="no"?>
<svg width="21px" height="21px" viewBox="0 0 21 21" version="1.1" xmlns="http://www.w3.org/2000/svg" xmlns:xlink="http://www.w3.org/1999/xlink">
    <!-- Generator: sketchtool 41 (35326) - http://www.bohemiancoding.com/sketch -->
    <title>096C143D-3DF1-4D35-A005-C99B2AEDF65A</title>
    <desc>Created with sketchtool.</desc>
    <defs></defs>
    <g id="Page-1" stroke="none" stroke-width="1" fill="none" fill-rule="evenodd">
        <g id="0.1-Главная-страницы(Витрина)" transform="translate(-895.000000, -1927.000000)" fill="#989EAF">
            <g id="Социальные-сети-Copy" transform="translate(766.000000, 1927.000000)">
                <path d="M139.655193,0 C136.845686,0 136.493399,0.0120871465 135.390013,0.0631866005 C134.288927,0.114161015 133.536925,0.29167535 132.878917,0.551257242 C132.198653,0.819550215 131.621747,1.17858015 131.046607,1.76230597 C130.471508,2.34607346 130.117783,2.93163319 129.853455,3.62210102 C129.59771,4.28997839 129.422819,5.05326085 129.372598,6.17086343 C129.322253,7.29080007 129.310345,7.64837121 129.310345,10.5000208 C129.310345,13.3516288 129.322253,13.7091999 129.372598,14.8291366 C129.422819,15.9467391 129.59771,16.7100216 129.853455,17.377899 C130.117783,18.0683668 130.471508,18.6539265 131.046607,19.237694 C131.621747,19.8214199 132.198653,20.1804498 132.878917,20.4487844 C133.536925,20.7083247 134.288927,20.885839 135.390013,20.9368134 C136.493399,20.9879129 136.845686,21 139.655193,21 C142.464659,21 142.816946,20.9879129 143.920332,20.9368134 C145.021418,20.885839 145.77342,20.7083247 146.431428,20.4487844 C147.111691,20.1804498 147.688598,19.8214199 148.263738,19.237694 C148.838837,18.6539265 149.192561,18.0683668 149.45693,17.377899 C149.712635,16.7100216 149.887526,15.9467391 149.937747,14.8291366 C149.988091,13.7091999 150,13.3516288 150,10.5000208 C150,7.64837121 149.988091,7.29080007 149.937747,6.17086343 C149.887526,5.05326085 149.712635,4.28997839 149.45693,3.62210102 C149.192561,2.93163319 148.838837,2.34607346 148.263738,1.76230597 C147.688598,1.17858015 147.111691,0.819550215 146.431428,0.551257242 C145.77342,0.29167535 145.021418,0.114161015 143.920332,0.0631866005 C142.816946,0.0120871465 142.464659,0 139.655193,0 Z M139.655193,1.89188851 C142.417353,1.89188851 142.74455,1.90260023 143.83537,1.95311616 C144.843981,1.99979756 145.391732,2.17085152 145.756256,2.31464688 C146.239126,2.50512364 146.583733,2.73265375 146.945711,3.10010301 C147.30773,3.46751058 147.531898,3.8172876 147.71956,4.30740055 C147.86123,4.67739227 148.029756,5.23335933 148.075748,6.25709897 C148.125517,7.36428159 148.13607,7.69638636 148.13607,10.5000208 C148.13607,13.3036136 148.125517,13.6357184 148.075748,14.742901 C148.029756,15.7666407 147.86123,16.3226077 147.71956,16.6925995 C147.531898,17.1827124 147.30773,17.5324894 146.945711,17.899897 C146.583733,18.2673462 146.239126,18.4948764 145.756256,18.6853531 C145.391732,18.8291485 144.843981,19.0002024 143.83537,19.0468838 C142.744714,19.0973998 142.417559,19.1081115 139.655193,19.1081115 C136.892786,19.1081115 136.565671,19.0973998 135.474974,19.0468838 C134.466364,19.0002024 133.918613,18.8291485 133.554089,18.6853531 C133.071219,18.4948764 132.726611,18.2673462 132.364634,17.899897 C132.002656,17.5324894 131.778447,17.1827124 131.590785,16.6925995 C131.449115,16.3226077 131.280589,15.7666407 131.234597,14.742901 C131.184828,13.6357184 131.174274,13.3036136 131.174274,10.5000208 C131.174274,7.69638636 131.184828,7.36428159 131.234597,6.25709897 C131.280589,5.23335933 131.449115,4.67739227 131.590785,4.30740055 C131.778447,3.8172876 132.002615,3.46751058 132.364634,3.10010301 C132.726611,2.73265375 133.071219,2.50512364 133.554089,2.31464688 C133.918613,2.17085152 134.466364,1.99979756 135.474974,1.95311616 C136.565795,1.90260023 136.892991,1.89188851 139.655193,1.89188851 Z M139.655193,5.10811149 C136.721303,5.10811149 134.342967,7.52212305 134.342967,10.5000208 C134.342967,13.4778769 136.721303,15.8918885 139.655193,15.8918885 C142.589041,15.8918885 144.967378,13.4778769 144.967378,10.5000208 C144.967378,7.52212305 142.589041,5.10811149 139.655193,5.10811149 Z M139.655193,14 C137.750733,14 136.206897,12.4330057 136.206897,10.5000208 C136.206897,8.56699435 137.750733,7 139.655193,7 C141.559611,7 143.103448,8.56699435 143.103448,10.5000208 C143.103448,12.4330057 141.559611,14 139.655193,14 Z M146.418657,4.89508595 C146.418657,5.59097215 145.862857,6.15506678 145.177255,6.15506678 C144.491694,6.15506678 143.935895,5.59097215 143.935895,4.89508595 C143.935895,4.19919975 144.491694,3.63506344 145.177255,3.63506344 C145.862857,3.63506344 146.418657,4.19919975 146.418657,4.89508595 Z" id="Instagram-Copy"></path>
            </g>
        </g>
    </g>
</svg>