<?xml version="1.0" encoding="UTF-8" standalone="no"?>
<svg width="27px" height="29px" viewBox="0 0 27 29" version="1.1" xmlns="http://www.w3.org/2000/svg" xmlns:xlink="http://www.w3.org/1999/xlink">
    <!-- Generator: Sketch 41 (35326) - http://www.bohemiancoding.com/sketch -->
    <title>Диалог</title>
    <desc>Created with Sketch.</desc>
    <defs></defs>
    <g id="Page-1" stroke="none" stroke-width="1" fill="none" fill-rule="evenodd">
        <g id="2.4-Карточка-лота(Аукцион)/Создан-диалог-с-продавцом" transform="translate(-643.000000, -355.000000)">
            <g id="Диалог" transform="translate(643.000000, 355.000000)">
                <path d="M17.2857143,12.7083333 C18.1534571,12.7083333 18.8571429,13.4235694 18.8571429,14.3055556 C18.8571429,15.1875417 18.1534571,15.9027778 17.2857143,15.9027778 C16.4179714,15.9027778 15.7142857,15.1875417 15.7142857,14.3055556 C15.7142857,13.4235694 16.4179714,12.7083333 17.2857143,12.7083333 L17.2857143,12.7083333 Z M11.0097429,12.7083333 C11.8778,12.7083333 12.5811714,13.4235694 12.5811714,14.3055556 C12.5811714,15.1875417 11.8778,15.9027778 11.0097429,15.9027778 C10.142,15.9027778 9.43831429,15.1875417 9.43831429,14.3055556 C9.43831429,13.4235694 10.142,12.7083333 11.0097429,12.7083333 L11.0097429,12.7083333 Z M4.71428571,12.7083333 C5.58202857,12.7083333 6.28571429,13.4235694 6.28571429,14.3055556 C6.28571429,15.1875417 5.58202857,15.9027778 4.71428571,15.9027778 C3.84654286,15.9027778 3.14285714,15.1875417 3.14285714,14.3055556 C3.14285714,13.4235694 3.84654286,12.7083333 4.71428571,12.7083333 L4.71428571,12.7083333 Z M1.88571429,6 C0.841028571,6 0,6.85483333 0,7.91666667 L0,20.6944444 C0,21.7562778 0.841028571,22.6111111 1.88571429,22.6111111 L4.71428571,22.6111111 L4.07597143,29 L10.3714286,22.6111111 L20.1142857,22.6111111 C21.1589714,22.6111111 22,21.7562778 22,20.6944444 L22,7.91666667 C22,6.85483333 21.1589714,6 20.1142857,6 L1.88571429,6 Z" id="Fill-1" fill="#989eaf"></path>
                <ellipse id="Oval-4" fill="#FFCF00" cx="22" cy="5" rx="5" ry="5"></ellipse>
            </g>
        </g>
    </g>
</svg>