<?xml version="1.0" encoding="UTF-8" standalone="no"?>
<svg width="80px" height="72px" viewBox="0 0 80 72" version="1.1" xmlns="http://www.w3.org/2000/svg" xmlns:xlink="http://www.w3.org/1999/xlink">
    <!-- Generator: sketchtool 41 (35326) - http://www.bohemiancoding.com/sketch -->
    <title>CBA07649-75D7-485C-8689-37DFD06618B5</title>
    <desc>Created with sketchtool.</desc>
    <defs>
        <linearGradient x1="-0.0215946844%" y1="49.6866667%" x2="99.9986711%" y2="49.6866667%" id="linearGradient-1">
            <stop stop-color="#FFEC00" offset="0%"></stop>
            <stop stop-color="#FFEC00" offset="18.32%"></stop>
            <stop stop-color="#FFEC00" offset="51.72%"></stop>
            <stop stop-color="#FFEC00" offset="72.27%"></stop>
            <stop stop-color="#FFBC00" offset="100%"></stop>
        </linearGradient>
        <linearGradient x1="-0.0179401993%" y1="49.6955556%" x2="100.002326%" y2="49.6955556%" id="linearGradient-2">
            <stop stop-color="#FFEC00" offset="0%"></stop>
            <stop stop-color="#FFEC00" offset="18.32%"></stop>
            <stop stop-color="#FFEC00" offset="51.72%"></stop>
            <stop stop-color="#FFEC00" offset="72.27%"></stop>
            <stop stop-color="#FFBC00" offset="100%"></stop>
        </linearGradient>
        <linearGradient x1="-0.0725913621%" y1="50.65%" x2="99.9476744%" y2="50.65%" id="linearGradient-3">
            <stop stop-color="#FFFF25" offset="0%"></stop>
            <stop stop-color="#FFF921" offset="1.859191%"></stop>
            <stop stop-color="#FFDE13" offset="10.82%"></stop>
            <stop stop-color="#FFCB08" offset="19.99%"></stop>
            <stop stop-color="#FFC002" offset="29.4%"></stop>
            <stop stop-color="#FFBC00" offset="39.42%"></stop>
            <stop stop-color="#FEA621" offset="66.85%"></stop>
            <stop stop-color="#FEA621" offset="88.76%"></stop>
            <stop stop-color="#FEA621" offset="100%"></stop>
        </linearGradient>
        <linearGradient x1="-0.0392026578%" y1="50.5277778%" x2="99.9812292%" y2="50.5277778%" id="linearGradient-4">
            <stop stop-color="#FFFF25" offset="0%"></stop>
            <stop stop-color="#FFF921" offset="1.859191%"></stop>
            <stop stop-color="#FFDE13" offset="10.82%"></stop>
            <stop stop-color="#FFCB08" offset="19.99%"></stop>
            <stop stop-color="#FFC002" offset="29.4%"></stop>
            <stop stop-color="#FFBC00" offset="39.42%"></stop>
            <stop stop-color="#FEA621" offset="66.85%"></stop>
            <stop stop-color="#FEA621" offset="88.76%"></stop>
            <stop stop-color="#FEA621" offset="100%"></stop>
        </linearGradient>
        <linearGradient x1="0.0544850498%" y1="50.23%" x2="100.074751%" y2="50.23%" id="linearGradient-5">
            <stop stop-color="#FFEC00" offset="0%"></stop>
            <stop stop-color="#FFEC00" offset="18.32%"></stop>
            <stop stop-color="#FFEC00" offset="51.72%"></stop>
            <stop stop-color="#FFEC00" offset="72.27%"></stop>
            <stop stop-color="#FFBC00" offset="100%"></stop>
        </linearGradient>
        <linearGradient x1="0.0727482871%" y1="50.5511111%" x2="100.080549%" y2="50.5511111%" id="linearGradient-6">
            <stop stop-color="#FFEC00" offset="0%"></stop>
            <stop stop-color="#FFEC00" offset="18.32%"></stop>
            <stop stop-color="#FFEC00" offset="51.72%"></stop>
            <stop stop-color="#FFEC00" offset="72.27%"></stop>
            <stop stop-color="#FFBC00" offset="100%"></stop>
        </linearGradient>
        <linearGradient x1="0.0181063123%" y1="50.2466667%" x2="100.038538%" y2="50.2466667%" id="linearGradient-7">
            <stop stop-color="#FFFF25" offset="0%"></stop>
            <stop stop-color="#FFF921" offset="1.859191%"></stop>
            <stop stop-color="#FFDE13" offset="10.82%"></stop>
            <stop stop-color="#FFCB08" offset="19.99%"></stop>
            <stop stop-color="#FFC002" offset="29.4%"></stop>
            <stop stop-color="#FFBC00" offset="39.42%"></stop>
            <stop stop-color="#FEA621" offset="66.85%"></stop>
            <stop stop-color="#FEA621" offset="88.76%"></stop>
            <stop stop-color="#FEA621" offset="100%"></stop>
        </linearGradient>
        <linearGradient x1="0.0149501661%" y1="49.7444444%" x2="100.035216%" y2="49.7444444%" id="linearGradient-8">
            <stop stop-color="#FFFF25" offset="0%"></stop>
            <stop stop-color="#FFF921" offset="1.859191%"></stop>
            <stop stop-color="#FFDE13" offset="10.82%"></stop>
            <stop stop-color="#FFCB08" offset="19.99%"></stop>
            <stop stop-color="#FFC002" offset="29.4%"></stop>
            <stop stop-color="#FFBC00" offset="39.42%"></stop>
            <stop stop-color="#FEA621" offset="66.85%"></stop>
            <stop stop-color="#FEA621" offset="88.76%"></stop>
            <stop stop-color="#FEA621" offset="100%"></stop>
        </linearGradient>
        <linearGradient x1="-0.0495016611%" y1="50.3566667%" x2="99.9709302%" y2="50.3566667%" id="linearGradient-9">
            <stop stop-color="#FFEC00" offset="0%"></stop>
            <stop stop-color="#FFEC00" offset="18.32%"></stop>
            <stop stop-color="#FFEC00" offset="51.72%"></stop>
            <stop stop-color="#FFEC00" offset="72.27%"></stop>
            <stop stop-color="#FFBC00" offset="100%"></stop>
        </linearGradient>
        <linearGradient x1="0.065606332%" y1="49.8588889%" x2="100.073407%" y2="49.8588889%" id="linearGradient-10">
            <stop stop-color="#FFFF25" offset="0%"></stop>
            <stop stop-color="#FFF921" offset="1.859191%"></stop>
            <stop stop-color="#FFDE13" offset="10.82%"></stop>
            <stop stop-color="#FFCB08" offset="19.99%"></stop>
            <stop stop-color="#FFC002" offset="29.4%"></stop>
            <stop stop-color="#FFBC00" offset="39.42%"></stop>
            <stop stop-color="#FEA621" offset="66.85%"></stop>
            <stop stop-color="#FEA621" offset="88.76%"></stop>
            <stop stop-color="#FEA621" offset="100%"></stop>
        </linearGradient>
        <linearGradient x1="4.29183476%" y1="70.2024247%" x2="95.6484429%" y2="29.7349345%" id="linearGradient-11">
            <stop stop-color="#FFEC00" offset="0%"></stop>
            <stop stop-color="#FFEC00" offset="18.32%"></stop>
            <stop stop-color="#FFEC00" offset="51.72%"></stop>
            <stop stop-color="#FFEC00" offset="72.27%"></stop>
            <stop stop-color="#FFBC00" offset="100%"></stop>
        </linearGradient>
        <linearGradient x1="4.26805712%" y1="70.3426375%" x2="95.8256852%" y2="29.7861031%" id="linearGradient-12">
            <stop stop-color="#FFFF25" offset="0%"></stop>
            <stop stop-color="#FFF921" offset="1.859191%"></stop>
            <stop stop-color="#FFDE13" offset="10.82%"></stop>
            <stop stop-color="#FFCB08" offset="19.99%"></stop>
            <stop stop-color="#FFC002" offset="29.4%"></stop>
            <stop stop-color="#FFBC00" offset="39.42%"></stop>
            <stop stop-color="#FEA621" offset="66.85%"></stop>
            <stop stop-color="#FEA621" offset="88.76%"></stop>
            <stop stop-color="#FEA621" offset="100%"></stop>
        </linearGradient>
        <linearGradient x1="18.5129342%" y1="61.3633438%" x2="85.7990759%" y2="34.4428254%" id="linearGradient-13">
            <stop stop-color="#FFF800" offset="0%"></stop>
            <stop stop-color="#FFCE00" offset="100%"></stop>
        </linearGradient>
        <linearGradient x1="38.9819559%" y1="101.333983%" x2="61.0243588%" y2="30.8008828%" id="linearGradient-14">
            <stop stop-color="#0C31A5" offset="0%"></stop>
            <stop stop-color="#0086FF" offset="100%"></stop>
        </linearGradient>
        <linearGradient x1="30.6596151%" y1="67.1944926%" x2="70.3777453%" y2="33.327545%" id="linearGradient-15">
            <stop stop-color="#0C31A5" offset="0%"></stop>
            <stop stop-color="#0086FF" offset="100%"></stop>
        </linearGradient>
        <linearGradient x1="47.7297591%" y1="114.68076%" x2="50.9885315%" y2="21.2603622%" id="linearGradient-16">
            <stop stop-color="#0C31A5" offset="0%"></stop>
            <stop stop-color="#0086FF" offset="100%"></stop>
        </linearGradient>
        <linearGradient x1="37.6678061%" y1="-3.10313733%" x2="62.2043455%" y2="103.624732%" id="linearGradient-17">
            <stop stop-color="#0C31A5" offset="0%"></stop>
            <stop stop-color="#0086FF" offset="100%"></stop>
        </linearGradient>
        <linearGradient x1="30.8681248%" y1="12.1151436%" x2="52.0685779%" y2="85.6352142%" id="linearGradient-18">
            <stop stop-color="#0C31A5" offset="0%"></stop>
            <stop stop-color="#0086FF" offset="100%"></stop>
        </linearGradient>
        <linearGradient x1="146.509367%" y1="17.8630448%" x2="48.9162474%" y2="82.2579451%" id="linearGradient-19">
            <stop stop-color="#0C31A5" offset="0%"></stop>
            <stop stop-color="#0086FF" offset="100%"></stop>
        </linearGradient>
        <linearGradient x1="38.526828%" y1="96.7029174%" x2="61.6988378%" y2="30.7462527%" id="linearGradient-20">
            <stop stop-color="#0C31A5" offset="0%"></stop>
            <stop stop-color="#0086FF" offset="100%"></stop>
        </linearGradient>
        <linearGradient x1="30.8203815%" y1="66.1936684%" x2="73.2100475%" y2="33.5842137%" id="linearGradient-21">
            <stop stop-color="#0C31A5" offset="0%"></stop>
            <stop stop-color="#0086FF" offset="100%"></stop>
        </linearGradient>
        <linearGradient x1="47.2364119%" y1="110.152892%" x2="51.3603429%" y2="24.176626%" id="linearGradient-22">
            <stop stop-color="#0C31A5" offset="0%"></stop>
            <stop stop-color="#0086FF" offset="100%"></stop>
        </linearGradient>
        <linearGradient x1="39.8084872%" y1="-2.89524346%" x2="60.3528324%" y2="102.67342%" id="linearGradient-23">
            <stop stop-color="#0C31A5" offset="0%"></stop>
            <stop stop-color="#0086FF" offset="100%"></stop>
        </linearGradient>
        <linearGradient x1="32.382151%" y1="11.6033176%" x2="51.9435749%" y2="87.4558635%" id="linearGradient-24">
            <stop stop-color="#0C31A5" offset="0%"></stop>
            <stop stop-color="#0086FF" offset="100%"></stop>
        </linearGradient>
        <linearGradient x1="144.28673%" y1="17.7209099%" x2="44.8636949%" y2="81.4301223%" id="linearGradient-25">
            <stop stop-color="#0C31A5" offset="0%"></stop>
            <stop stop-color="#0086FF" offset="100%"></stop>
        </linearGradient>
    </defs>
    <g id="Page-1" stroke="none" stroke-width="1" fill="none" fill-rule="evenodd">
        <g id="6.0-Магазин-баллов" transform="translate(-312.000000, -500.000000)">
            <g id="Стопка" transform="translate(312.000000, 500.650943)">
                <g id="Слой_1">
                    <g id="XMLID_218_">
                        <path d="M68.5283019,70.2641509 L26.1132075,70.2641509 C25.2830189,70.2641509 24.6037736,69.5849057 24.6037736,68.754717 L24.6037736,64.9811321 C24.6037736,64.1509434 25.2830189,63.4716981 26.1132075,63.4716981 L68.5283019,63.4716981 C69.3584906,63.4716981 70.0377358,64.1509434 70.0377358,64.9811321 L70.0377358,68.754717 C70.0377358,69.5849057 69.3584906,70.2641509 68.5283019,70.2641509 Z" id="XMLID_669_" stroke="#E8A41C" stroke-width="0.5" fill="url(#linearGradient-1)"></path>
                        <path d="M26.7169811,63.4716981 L26.7169811,70.2641509" id="XMLID_668_" stroke="#E8A41C" stroke-width="1.5"></path>
                        <path d="M29.2830189,63.4716981 L29.2830189,70.2641509" id="XMLID_667_" stroke="#E8A41C" stroke-width="1.5"></path>
                        <path d="M31.8490566,63.4716981 L31.8490566,70.2641509" id="XMLID_666_" stroke="#E8A41C" stroke-width="1.5"></path>
                        <path d="M34.4150943,63.4716981 L34.4150943,70.2641509" id="XMLID_665_" stroke="#E8A41C" stroke-width="1.5"></path>
                        <path d="M36.9811321,63.4716981 L36.9811321,70.2641509" id="XMLID_664_" stroke="#E8A41C" stroke-width="1.5"></path>
                        <path d="M39.5471698,63.4716981 L39.5471698,70.2641509" id="XMLID_663_" stroke="#E8A41C" stroke-width="1.5"></path>
                        <path d="M42.1132075,63.4716981 L42.1132075,70.2641509" id="XMLID_662_" stroke="#E8A41C" stroke-width="1.5"></path>
                        <path d="M44.6792453,63.4716981 L44.6792453,70.2641509" id="XMLID_661_" stroke="#E8A41C" stroke-width="1.5"></path>
                        <path d="M47.245283,63.4716981 L47.245283,70.2641509" id="XMLID_660_" stroke="#E8A41C" stroke-width="1.5"></path>
                        <path d="M49.8113208,63.4716981 L49.8113208,70.2641509" id="XMLID_659_" stroke="#E8A41C" stroke-width="1.5"></path>
                        <path d="M52.3773585,63.4716981 L52.3773585,70.2641509" id="XMLID_658_" stroke="#E8A41C" stroke-width="1.5"></path>
                        <path d="M54.9433962,63.4716981 L54.9433962,70.2641509" id="XMLID_657_" stroke="#E8A41C" stroke-width="1.5"></path>
                        <path d="M57.509434,63.4716981 L57.509434,70.2641509" id="XMLID_656_" stroke="#E8A41C" stroke-width="1.5"></path>
                        <path d="M60.0754717,63.4716981 L60.0754717,70.2641509" id="XMLID_655_" stroke="#E8A41C" stroke-width="1.5"></path>
                        <path d="M62.6415094,63.4716981 L62.6415094,70.2641509" id="XMLID_654_" stroke="#E8A41C" stroke-width="1.5"></path>
                        <path d="M65.2075472,63.4716981 L65.2075472,70.2641509" id="XMLID_653_" stroke="#E8A41C" stroke-width="1.5"></path>
                        <path d="M67.7735849,63.4716981 L67.7735849,70.2641509" id="XMLID_652_" stroke="#E8A41C" stroke-width="1.5"></path>
                        <path d="M65.8867925,56.1509434 L23.4716981,56.1509434 C22.6415094,56.1509434 21.9622642,55.4716981 21.9622642,54.6415094 L21.9622642,50.8679245 C21.9622642,50.0377358 22.6415094,49.3584906 23.4716981,49.3584906 L65.8867925,49.3584906 C66.7169811,49.3584906 67.3962264,50.0377358 67.3962264,50.8679245 L67.3962264,54.6415094 C67.3962264,55.4716981 66.7169811,56.1509434 65.8867925,56.1509434 Z" id="XMLID_650_" stroke="#E8A41C" stroke-width="0.5" fill="url(#linearGradient-2)"></path>
                        <path d="M24.0754717,49.3584906 L24.0754717,56.1509434" id="XMLID_649_" stroke="#E8A41C" stroke-width="1.5"></path>
                        <path d="M26.6415094,49.3584906 L26.6415094,56.1509434" id="XMLID_648_" stroke="#E8A41C" stroke-width="1.5"></path>
                        <path d="M29.2075472,49.3584906 L29.2075472,56.1509434" id="XMLID_647_" stroke="#E8A41C" stroke-width="1.5"></path>
                        <path d="M31.7735849,49.3584906 L31.7735849,56.1509434" id="XMLID_646_" stroke="#E8A41C" stroke-width="1.5"></path>
                        <path d="M34.3396226,49.3584906 L34.3396226,56.1509434" id="XMLID_645_" stroke="#E8A41C" stroke-width="1.5"></path>
                        <path d="M36.9056604,49.3584906 L36.9056604,56.1509434" id="XMLID_644_" stroke="#E8A41C" stroke-width="1.5"></path>
                        <path d="M39.4716981,49.3584906 L39.4716981,56.1509434" id="XMLID_643_" stroke="#E8A41C" stroke-width="1.5"></path>
                        <path d="M42.0377358,49.3584906 L42.0377358,56.1509434" id="XMLID_642_" stroke="#E8A41C" stroke-width="1.5"></path>
                        <path d="M44.6037736,49.3584906 L44.6037736,56.1509434" id="XMLID_641_" stroke="#E8A41C" stroke-width="1.5"></path>
                        <path d="M47.1698113,49.3584906 L47.1698113,56.1509434" id="XMLID_640_" stroke="#E8A41C" stroke-width="1.5"></path>
                        <path d="M49.7358491,49.3584906 L49.7358491,56.1509434" id="XMLID_638_" stroke="#E8A41C" stroke-width="1.5"></path>
                        <path d="M52.3018868,49.3584906 L52.3018868,56.1509434" id="XMLID_637_" stroke="#E8A41C" stroke-width="1.5"></path>
                        <path d="M54.8679245,49.3584906 L54.8679245,56.1509434" id="XMLID_636_" stroke="#E8A41C" stroke-width="1.5"></path>
                        <path d="M57.4339623,49.3584906 L57.4339623,56.1509434" id="XMLID_635_" stroke="#E8A41C" stroke-width="1.5"></path>
                        <path d="M60,49.3584906 L60,56.1509434" id="XMLID_634_" stroke="#E8A41C" stroke-width="1.5"></path>
                        <path d="M62.5660377,49.3584906 L62.5660377,56.1509434" id="XMLID_633_" stroke="#E8A41C" stroke-width="1.5"></path>
                        <path d="M65.1320755,49.3584906 L65.1320755,56.1509434" id="XMLID_632_" stroke="#E8A41C" stroke-width="1.5"></path>
                        <path d="M69.9622642,63.1698113 L27.5471698,63.1698113 C26.7169811,63.1698113 26.0377358,62.490566 26.0377358,61.6603774 L26.0377358,57.8867925 C26.0377358,57.0566038 26.7169811,56.3773585 27.5471698,56.3773585 L69.9622642,56.3773585 C70.7924528,56.3773585 71.4716981,57.0566038 71.4716981,57.8867925 L71.4716981,61.6603774 C71.4716981,62.490566 70.7924528,63.1698113 69.9622642,63.1698113 Z" id="XMLID_630_" stroke="#CC8A15" stroke-width="0.5" fill="url(#linearGradient-3)"></path>
                        <path d="M28.1509434,56.4528302 L28.1509434,63.1698113" id="XMLID_629_" stroke="#CC8A15" stroke-width="1.5"></path>
                        <path d="M30.7169811,56.4528302 L30.7169811,63.1698113" id="XMLID_628_" stroke="#CC8A15" stroke-width="1.5"></path>
                        <path d="M33.2830189,56.4528302 L33.2830189,63.1698113" id="XMLID_627_" stroke="#CC8A15" stroke-width="1.5"></path>
                        <path d="M35.8490566,56.4528302 L35.8490566,63.1698113" id="XMLID_626_" stroke="#CC8A15" stroke-width="1.5"></path>
                        <path d="M38.4150943,56.4528302 L38.4150943,63.1698113" id="XMLID_625_" stroke="#CC8A15" stroke-width="1.5"></path>
                        <path d="M40.9811321,56.4528302 L40.9811321,63.1698113" id="XMLID_624_" stroke="#CC8A15" stroke-width="1.5"></path>
                        <path d="M43.5471698,56.4528302 L43.5471698,63.1698113" id="XMLID_623_" stroke="#CC8A15" stroke-width="1.5"></path>
                        <path d="M46.1132075,56.4528302 L46.1132075,63.1698113" id="XMLID_622_" stroke="#CC8A15" stroke-width="1.5"></path>
                        <path d="M48.6792453,56.4528302 L48.6792453,63.1698113" id="XMLID_621_" stroke="#CC8A15" stroke-width="1.5"></path>
                        <path d="M51.245283,56.4528302 L51.245283,63.1698113" id="XMLID_620_" stroke="#CC8A15" stroke-width="1.5"></path>
                        <path d="M53.8113208,56.4528302 L53.8113208,63.1698113" id="XMLID_619_" stroke="#CC8A15" stroke-width="1.5"></path>
                        <path d="M56.3773585,56.4528302 L56.3773585,63.1698113" id="XMLID_618_" stroke="#CC8A15" stroke-width="1.5"></path>
                        <path d="M58.9433962,56.4528302 L58.9433962,63.1698113" id="XMLID_617_" stroke="#CC8A15" stroke-width="1.5"></path>
                        <path d="M61.509434,56.4528302 L61.509434,63.1698113" id="XMLID_616_" stroke="#CC8A15" stroke-width="1.5"></path>
                        <path d="M64.0754717,56.4528302 L64.0754717,63.1698113" id="XMLID_615_" stroke="#CC8A15" stroke-width="1.5"></path>
                        <path d="M66.5660377,56.4528302 L66.5660377,63.1698113" id="XMLID_614_" stroke="#CC8A15" stroke-width="1.5"></path>
                        <path d="M69.1320755,56.4528302 L69.1320755,63.1698113" id="XMLID_613_" stroke="#CC8A15" stroke-width="1.5"></path>
                        <path d="M69.5849057,48.9811321 L27.1698113,48.9811321 C26.3396226,48.9811321 25.6603774,48.3018868 25.6603774,47.4716981 L25.6603774,43.6981132 C25.6603774,42.8679245 26.3396226,42.1886792 27.1698113,42.1886792 L69.5849057,42.1886792 C70.4150943,42.1886792 71.0943396,42.8679245 71.0943396,43.6981132 L71.0943396,47.4716981 C71.0943396,48.3018868 70.4150943,48.9811321 69.5849057,48.9811321 Z" id="XMLID_611_" stroke="#CC8A15" stroke-width="0.5" fill="url(#linearGradient-4)"></path>
                        <path d="M27.7735849,42.2641509 L27.7735849,48.9811321" id="XMLID_610_" stroke="#CC8A15" stroke-width="1.5"></path>
                        <path d="M30.3396226,42.2641509 L30.3396226,48.9811321" id="XMLID_609_" stroke="#CC8A15" stroke-width="1.5"></path>
                        <path d="M32.9056604,42.2641509 L32.9056604,48.9811321" id="XMLID_608_" stroke="#CC8A15" stroke-width="1.5"></path>
                        <path d="M35.4716981,42.2641509 L35.4716981,48.9811321" id="XMLID_607_" stroke="#CC8A15" stroke-width="1.5"></path>
                        <path d="M38.0377358,42.2641509 L38.0377358,48.9811321" id="XMLID_606_" stroke="#CC8A15" stroke-width="1.5"></path>
                        <path d="M40.6037736,42.2641509 L40.6037736,48.9811321" id="XMLID_605_" stroke="#CC8A15" stroke-width="1.5"></path>
                        <path d="M43.1698113,42.2641509 L43.1698113,48.9811321" id="XMLID_604_" stroke="#CC8A15" stroke-width="1.5"></path>
                        <path d="M45.7358491,42.2641509 L45.7358491,48.9811321" id="XMLID_603_" stroke="#CC8A15" stroke-width="1.5"></path>
                        <path d="M48.3018868,42.2641509 L48.3018868,48.9811321" id="XMLID_602_" stroke="#CC8A15" stroke-width="1.5"></path>
                        <path d="M50.8679245,42.2641509 L50.8679245,48.9811321" id="XMLID_601_" stroke="#CC8A15" stroke-width="1.5"></path>
                        <path d="M53.4339623,42.2641509 L53.4339623,48.9811321" id="XMLID_600_" stroke="#CC8A15" stroke-width="1.5"></path>
                        <path d="M56,42.2641509 L56,48.9811321" id="XMLID_599_" stroke="#CC8A15" stroke-width="1.5"></path>
                        <path d="M58.5660377,42.2641509 L58.5660377,48.9811321" id="XMLID_598_" stroke="#CC8A15" stroke-width="1.5"></path>
                        <path d="M61.1320755,42.2641509 L61.1320755,48.9811321" id="XMLID_597_" stroke="#CC8A15" stroke-width="1.5"></path>
                        <path d="M63.6981132,42.2641509 L63.6981132,48.9811321" id="XMLID_596_" stroke="#CC8A15" stroke-width="1.5"></path>
                        <path d="M66.2641509,42.2641509 L66.2641509,48.9811321" id="XMLID_595_" stroke="#CC8A15" stroke-width="1.5"></path>
                        <path d="M68.8301887,42.2641509 L68.8301887,48.9811321" id="XMLID_594_" stroke="#CC8A15" stroke-width="1.5"></path>
                        <path d="M68.9056604,41.9622642 L26.490566,41.9622642 C25.6603774,41.9622642 24.9811321,41.2830189 24.9811321,40.4528302 L24.9811321,36.6792453 C24.9811321,35.8490566 25.6603774,35.1698113 26.490566,35.1698113 L68.9056604,35.1698113 C69.7358491,35.1698113 70.4150943,35.8490566 70.4150943,36.6792453 L70.4150943,40.4528302 C70.4150943,41.2830189 69.7358491,41.9622642 68.9056604,41.9622642 Z" id="XMLID_759_" stroke="#E8A41C" stroke-width="0.5" fill="url(#linearGradient-5)"></path>
                        <path d="M27.1698113,35.1698113 L27.1698113,41.9622642" id="XMLID_758_" stroke="#E8A41C" stroke-width="1.5"></path>
                        <path d="M29.7358491,35.1698113 L29.7358491,41.9622642" id="XMLID_757_" stroke="#E8A41C" stroke-width="1.5"></path>
                        <path d="M32.3018868,35.1698113 L32.3018868,41.9622642" id="XMLID_756_" stroke="#E8A41C" stroke-width="1.5"></path>
                        <path d="M34.7924528,35.1698113 L34.7924528,41.9622642" id="XMLID_755_" stroke="#E8A41C" stroke-width="1.5"></path>
                        <path d="M37.3584906,35.1698113 L37.3584906,41.9622642" id="XMLID_754_" stroke="#E8A41C" stroke-width="1.5"></path>
                        <path d="M39.9245283,35.1698113 L39.9245283,41.9622642" id="XMLID_753_" stroke="#E8A41C" stroke-width="1.5"></path>
                        <path d="M42.490566,35.1698113 L42.490566,41.9622642" id="XMLID_752_" stroke="#E8A41C" stroke-width="1.5"></path>
                        <path d="M45.0566038,35.1698113 L45.0566038,41.9622642" id="XMLID_751_" stroke="#E8A41C" stroke-width="1.5"></path>
                        <path d="M47.6226415,35.1698113 L47.6226415,41.9622642" id="XMLID_750_" stroke="#E8A41C" stroke-width="1.5"></path>
                        <path d="M50.1886792,35.1698113 L50.1886792,41.9622642" id="XMLID_749_" stroke="#E8A41C" stroke-width="1.5"></path>
                        <path d="M52.754717,35.1698113 L52.754717,41.9622642" id="XMLID_748_" stroke="#E8A41C" stroke-width="1.5"></path>
                        <path d="M55.3207547,35.1698113 L55.3207547,41.9622642" id="XMLID_747_" stroke="#E8A41C" stroke-width="1.5"></path>
                        <path d="M57.8867925,35.1698113 L57.8867925,41.9622642" id="XMLID_746_" stroke="#E8A41C" stroke-width="1.5"></path>
                        <path d="M60.4528302,35.1698113 L60.4528302,41.9622642" id="XMLID_745_" stroke="#E8A41C" stroke-width="1.5"></path>
                        <path d="M63.0188679,35.1698113 L63.0188679,41.9622642" id="XMLID_744_" stroke="#E8A41C" stroke-width="1.5"></path>
                        <path d="M65.5849057,35.1698113 L65.5849057,41.9622642" id="XMLID_743_" stroke="#E8A41C" stroke-width="1.5"></path>
                        <path d="M68.1509434,35.1698113 L68.1509434,41.9622642" id="XMLID_742_" stroke="#E8A41C" stroke-width="1.5"></path>
                        <path d="M66.3396226,28.0754717 L23.8490566,28.0754717 C23.0188679,28.0754717 22.3396226,27.3962264 22.3396226,26.5660377 L22.3396226,22.7924528 C22.3396226,21.9622642 23.0188679,21.2830189 23.8490566,21.2830189 L66.2641509,21.2830189 C67.0943396,21.2830189 67.7735849,21.9622642 67.7735849,22.7924528 L67.7735849,26.5660377 C67.8490566,27.3962264 67.1698113,28.0754717 66.3396226,28.0754717 Z" id="XMLID_740_" stroke="#E8A41C" stroke-width="0.5" fill="url(#linearGradient-6)"></path>
                        <path d="M24.5283019,21.3584906 L24.5283019,28.0754717" id="XMLID_739_" stroke="#E8A41C" stroke-width="1.5"></path>
                        <path d="M27.0943396,21.3584906 L27.0943396,28.0754717" id="XMLID_738_" stroke="#E8A41C" stroke-width="1.5"></path>
                        <path d="M29.6603774,21.3584906 L29.6603774,28.0754717" id="XMLID_737_" stroke="#E8A41C" stroke-width="1.5"></path>
                        <path d="M32.2264151,21.3584906 L32.2264151,28.0754717" id="XMLID_736_" stroke="#E8A41C" stroke-width="1.5"></path>
                        <path d="M34.7924528,21.3584906 L34.7924528,28.0754717" id="XMLID_735_" stroke="#E8A41C" stroke-width="1.5"></path>
                        <path d="M37.3584906,21.3584906 L37.3584906,28.0754717" id="XMLID_734_" stroke="#E8A41C" stroke-width="1.5"></path>
                        <path d="M39.9245283,21.3584906 L39.9245283,28.0754717" id="XMLID_733_" stroke="#E8A41C" stroke-width="1.5"></path>
                        <path d="M42.490566,21.3584906 L42.490566,28.0754717" id="XMLID_732_" stroke="#E8A41C" stroke-width="1.5"></path>
                        <path d="M45.0566038,21.3584906 L45.0566038,28.0754717" id="XMLID_731_" stroke="#E8A41C" stroke-width="1.5"></path>
                        <path d="M47.5471698,21.3584906 L47.5471698,28.0754717" id="XMLID_730_" stroke="#E8A41C" stroke-width="1.5"></path>
                        <path d="M50.1132075,21.3584906 L50.1132075,28.0754717" id="XMLID_729_" stroke="#E8A41C" stroke-width="1.5"></path>
                        <path d="M52.6792453,21.3584906 L52.6792453,28.0754717" id="XMLID_728_" stroke="#E8A41C" stroke-width="1.5"></path>
                        <path d="M55.245283,21.3584906 L55.245283,28.0754717" id="XMLID_727_" stroke="#E8A41C" stroke-width="1.5"></path>
                        <path d="M57.8113208,21.3584906 L57.8113208,28.0754717" id="XMLID_726_" stroke="#E8A41C" stroke-width="1.5"></path>
                        <path d="M60.3773585,21.3584906 L60.3773585,28.0754717" id="XMLID_725_" stroke="#E8A41C" stroke-width="1.5"></path>
                        <path d="M62.9433962,21.3584906 L62.9433962,28.0754717" id="XMLID_724_" stroke="#E8A41C" stroke-width="1.5"></path>
                        <path d="M65.509434,21.3584906 L65.509434,28.0754717" id="XMLID_723_" stroke="#E8A41C" stroke-width="1.5"></path>
                        <path d="M70.3396226,34.8679245 L27.9245283,34.8679245 C27.0943396,34.8679245 26.4150943,34.1886792 26.4150943,33.3584906 L26.4150943,29.5849057 C26.4150943,28.754717 27.0943396,28.0754717 27.9245283,28.0754717 L70.3396226,28.0754717 C71.1698113,28.0754717 71.8490566,28.754717 71.8490566,29.5849057 L71.8490566,33.3584906 C71.8490566,34.1886792 71.1698113,34.8679245 70.3396226,34.8679245 Z" id="XMLID_721_" stroke="#CC8A15" stroke-width="0.5" fill="url(#linearGradient-7)"></path>
                        <path d="M28.5283019,28.0754717 L28.5283019,34.8679245" id="XMLID_720_" stroke="#CC8A15" stroke-width="1.5"></path>
                        <path d="M31.0943396,28.0754717 L31.0943396,34.8679245" id="XMLID_719_" stroke="#CC8A15" stroke-width="1.5"></path>
                        <path d="M33.6603774,28.0754717 L33.6603774,34.8679245" id="XMLID_718_" stroke="#CC8A15" stroke-width="1.5"></path>
                        <path d="M36.2264151,28.0754717 L36.2264151,34.8679245" id="XMLID_717_" stroke="#CC8A15" stroke-width="1.5"></path>
                        <path d="M38.7924528,28.0754717 L38.7924528,34.8679245" id="XMLID_716_" stroke="#CC8A15" stroke-width="1.5"></path>
                        <path d="M41.3584906,28.0754717 L41.3584906,34.8679245" id="XMLID_715_" stroke="#CC8A15" stroke-width="1.5"></path>
                        <path d="M43.9245283,28.0754717 L43.9245283,34.8679245" id="XMLID_714_" stroke="#CC8A15" stroke-width="1.5"></path>
                        <path d="M46.490566,28.0754717 L46.490566,34.8679245" id="XMLID_713_" stroke="#CC8A15" stroke-width="1.5"></path>
                        <path d="M49.0566038,28.0754717 L49.0566038,34.8679245" id="XMLID_712_" stroke="#CC8A15" stroke-width="1.5"></path>
                        <path d="M51.6226415,28.0754717 L51.6226415,34.8679245" id="XMLID_711_" stroke="#CC8A15" stroke-width="1.5"></path>
                        <path d="M54.1886792,28.0754717 L54.1886792,34.8679245" id="XMLID_710_" stroke="#CC8A15" stroke-width="1.5"></path>
                        <path d="M56.754717,28.0754717 L56.754717,34.8679245" id="XMLID_709_" stroke="#CC8A15" stroke-width="1.5"></path>
                        <path d="M59.3207547,28.0754717 L59.3207547,34.8679245" id="XMLID_708_" stroke="#CC8A15" stroke-width="1.5"></path>
                        <path d="M61.8867925,28.0754717 L61.8867925,34.8679245" id="XMLID_707_" stroke="#CC8A15" stroke-width="1.5"></path>
                        <path d="M64.4528302,28.0754717 L64.4528302,34.8679245" id="XMLID_706_" stroke="#CC8A15" stroke-width="1.5"></path>
                        <path d="M67.0188679,28.0754717 L67.0188679,34.8679245" id="XMLID_705_" stroke="#CC8A15" stroke-width="1.5"></path>
                        <path d="M69.5849057,28.0754717 L69.5849057,34.8679245" id="XMLID_704_" stroke="#CC8A15" stroke-width="1.5"></path>
                        <path d="M72.8301887,21.3584906 L30.4150943,21.3584906 C29.5849057,21.3584906 28.9056604,20.6792453 28.9056604,19.8490566 L28.9056604,16.0754717 C28.9056604,15.245283 29.5849057,14.5660377 30.4150943,14.5660377 L72.8301887,14.5660377 C73.6603774,14.5660377 74.3396226,15.245283 74.3396226,16.0754717 L74.3396226,19.8490566 C74.3396226,20.6792453 73.6603774,21.3584906 72.8301887,21.3584906 Z" id="XMLID_702_" stroke="#CC8A15" stroke-width="0.5" fill="url(#linearGradient-8)"></path>
                        <path d="M31.0188679,14.5660377 L31.0188679,21.3584906" id="XMLID_701_" stroke="#CC8A15" stroke-width="1.5"></path>
                        <path d="M33.5849057,14.5660377 L33.5849057,21.3584906" id="XMLID_700_" stroke="#CC8A15" stroke-width="1.5"></path>
                        <path d="M36.1509434,14.5660377 L36.1509434,21.3584906" id="XMLID_699_" stroke="#CC8A15" stroke-width="1.5"></path>
                        <path d="M38.7169811,14.5660377 L38.7169811,21.3584906" id="XMLID_698_" stroke="#CC8A15" stroke-width="1.5"></path>
                        <path d="M41.2830189,14.5660377 L41.2830189,21.3584906" id="XMLID_697_" stroke="#CC8A15" stroke-width="1.5"></path>
                        <path d="M43.8490566,14.5660377 L43.8490566,21.3584906" id="XMLID_696_" stroke="#CC8A15" stroke-width="1.5"></path>
                        <path d="M46.4150943,14.5660377 L46.4150943,21.3584906" id="XMLID_695_" stroke="#CC8A15" stroke-width="1.5"></path>
                        <path d="M48.9811321,14.5660377 L48.9811321,21.3584906" id="XMLID_694_" stroke="#CC8A15" stroke-width="1.5"></path>
                        <path d="M51.5471698,14.5660377 L51.5471698,21.3584906" id="XMLID_693_" stroke="#CC8A15" stroke-width="1.5"></path>
                        <path d="M54.1132075,14.5660377 L54.1132075,21.3584906" id="XMLID_692_" stroke="#CC8A15" stroke-width="1.5"></path>
                        <path d="M56.6792453,14.5660377 L56.6792453,21.3584906" id="XMLID_691_" stroke="#CC8A15" stroke-width="1.5"></path>
                        <path d="M59.245283,14.5660377 L59.245283,21.3584906" id="XMLID_690_" stroke="#CC8A15" stroke-width="1.5"></path>
                        <path d="M61.8113208,14.5660377 L61.8113208,21.3584906" id="XMLID_689_" stroke="#CC8A15" stroke-width="1.5"></path>
                        <path d="M64.3773585,14.5660377 L64.3773585,21.3584906" id="XMLID_688_" stroke="#CC8A15" stroke-width="1.5"></path>
                        <path d="M66.9433962,14.5660377 L66.9433962,21.3584906" id="XMLID_687_" stroke="#CC8A15" stroke-width="1.5"></path>
                        <path d="M69.509434,14.5660377 L69.509434,21.3584906" id="XMLID_686_" stroke="#CC8A15" stroke-width="1.5"></path>
                        <path d="M72.0754717,14.5660377 L72.0754717,21.3584906" id="XMLID_685_" stroke="#CC8A15" stroke-width="1.5"></path>
                        <path d="M70.1132075,14.1886792 L27.6981132,14.1886792 C26.8679245,14.1886792 26.1886792,13.509434 26.1886792,12.6792453 L26.1886792,8.90566038 C26.1886792,8.0754717 26.8679245,7.39622642 27.6981132,7.39622642 L70.1132075,7.39622642 C70.9433962,7.39622642 71.6226415,8.0754717 71.6226415,8.90566038 L71.6226415,12.6792453 C71.6226415,13.509434 70.9433962,14.1886792 70.1132075,14.1886792 Z" id="XMLID_836_" stroke="#E8A41C" stroke-width="0.5" fill="url(#linearGradient-9)"></path>
                        <path d="M28.3018868,7.39622642 L28.3018868,14.1886792" id="XMLID_835_" stroke="#E8A41C" stroke-width="1.5"></path>
                        <path d="M30.8679245,7.39622642 L30.8679245,14.1886792" id="XMLID_834_" stroke="#E8A41C" stroke-width="1.5"></path>
                        <path d="M33.4339623,7.39622642 L33.4339623,14.1886792" id="XMLID_833_" stroke="#E8A41C" stroke-width="1.5"></path>
                        <path d="M36,7.39622642 L36,14.1886792" id="XMLID_832_" stroke="#E8A41C" stroke-width="1.5"></path>
                        <path d="M38.5660377,7.39622642 L38.5660377,14.1886792" id="XMLID_831_" stroke="#E8A41C" stroke-width="1.5"></path>
                        <path d="M41.1320755,7.39622642 L41.1320755,14.1886792" id="XMLID_830_" stroke="#E8A41C" stroke-width="1.5"></path>
                        <path d="M43.6981132,7.39622642 L43.6981132,14.1886792" id="XMLID_829_" stroke="#E8A41C" stroke-width="1.5"></path>
                        <path d="M46.2641509,7.39622642 L46.2641509,14.1886792" id="XMLID_828_" stroke="#E8A41C" stroke-width="1.5"></path>
                        <path d="M48.8301887,7.39622642 L48.8301887,14.1886792" id="XMLID_827_" stroke="#E8A41C" stroke-width="1.5"></path>
                        <path d="M51.3962264,7.39622642 L51.3962264,14.1886792" id="XMLID_826_" stroke="#E8A41C" stroke-width="1.5"></path>
                        <path d="M53.9622642,7.39622642 L53.9622642,14.1886792" id="XMLID_825_" stroke="#E8A41C" stroke-width="1.5"></path>
                        <path d="M56.5283019,7.39622642 L56.5283019,14.1886792" id="XMLID_824_" stroke="#E8A41C" stroke-width="1.5"></path>
                        <path d="M59.0943396,7.39622642 L59.0943396,14.1886792" id="XMLID_823_" stroke="#E8A41C" stroke-width="1.5"></path>
                        <path d="M61.6603774,7.39622642 L61.6603774,14.1886792" id="XMLID_822_" stroke="#E8A41C" stroke-width="1.5"></path>
                        <path d="M64.2264151,7.39622642 L64.2264151,14.1886792" id="XMLID_821_" stroke="#E8A41C" stroke-width="1.5"></path>
                        <path d="M66.7924528,7.39622642 L66.7924528,14.1886792" id="XMLID_820_" stroke="#E8A41C" stroke-width="1.5"></path>
                        <path d="M69.3584906,7.39622642 L69.3584906,14.1886792" id="XMLID_819_" stroke="#E8A41C" stroke-width="1.5"></path>
                        <path d="M71.5471698,7.09433962 L29.0566038,7.09433962 C28.2264151,7.09433962 27.5471698,6.41509434 27.5471698,5.58490566 L27.5471698,1.81132075 C27.5471698,0.981132075 28.2264151,0.301886792 29.0566038,0.301886792 L71.4716981,0.301886792 C72.3018868,0.301886792 72.9811321,0.981132075 72.9811321,1.81132075 L72.9811321,5.58490566 C73.0566038,6.41509434 72.3773585,7.09433962 71.5471698,7.09433962 Z" id="XMLID_798_" stroke="#CC8A15" stroke-width="0.5" fill="url(#linearGradient-10)"></path>
                        <path d="M29.7358491,0.301886792 L29.7358491,7.09433962" id="XMLID_797_" stroke="#CC8A15" stroke-width="1.5"></path>
                        <path d="M32.3018868,0.301886792 L32.3018868,7.09433962" id="XMLID_796_" stroke="#CC8A15" stroke-width="1.5"></path>
                        <path d="M34.8679245,0.301886792 L34.8679245,7.09433962" id="XMLID_795_" stroke="#CC8A15" stroke-width="1.5"></path>
                        <path d="M37.4339623,0.301886792 L37.4339623,7.09433962" id="XMLID_794_" stroke="#CC8A15" stroke-width="1.5"></path>
                        <path d="M40,0.301886792 L40,7.09433962" id="XMLID_793_" stroke="#CC8A15" stroke-width="1.5"></path>
                        <path d="M42.5660377,0.301886792 L42.5660377,7.09433962" id="XMLID_792_" stroke="#CC8A15" stroke-width="1.5"></path>
                        <path d="M45.0566038,0.301886792 L45.0566038,7.09433962" id="XMLID_791_" stroke="#CC8A15" stroke-width="1.5"></path>
                        <path d="M47.6226415,0.301886792 L47.6226415,7.09433962" id="XMLID_790_" stroke="#CC8A15" stroke-width="1.5"></path>
                        <path d="M50.1886792,0.301886792 L50.1886792,7.09433962" id="XMLID_789_" stroke="#CC8A15" stroke-width="1.5"></path>
                        <path d="M52.754717,0.301886792 L52.754717,7.09433962" id="XMLID_788_" stroke="#CC8A15" stroke-width="1.5"></path>
                        <path d="M55.3207547,0.301886792 L55.3207547,7.09433962" id="XMLID_787_" stroke="#CC8A15" stroke-width="1.5"></path>
                        <path d="M57.8867925,0.301886792 L57.8867925,7.09433962" id="XMLID_786_" stroke="#CC8A15" stroke-width="1.5"></path>
                        <path d="M60.4528302,0.301886792 L60.4528302,7.09433962" id="XMLID_785_" stroke="#CC8A15" stroke-width="1.5"></path>
                        <path d="M63.0188679,0.301886792 L63.0188679,7.09433962" id="XMLID_784_" stroke="#CC8A15" stroke-width="1.5"></path>
                        <path d="M65.5849057,0.301886792 L65.5849057,7.09433962" id="XMLID_783_" stroke="#CC8A15" stroke-width="1.5"></path>
                        <path d="M68.1509434,0.301886792 L68.1509434,7.09433962" id="XMLID_782_" stroke="#CC8A15" stroke-width="1.5"></path>
                        <path d="M70.7169811,0.301886792 L70.7169811,7.09433962" id="XMLID_781_" stroke="#CC8A15" stroke-width="1.5"></path>
                        <g id="XMLID_127_" transform="translate(25.660377, 24.905660)" fill-opacity="0.3" fill="#C47F10">
                            <polygon id="XMLID_763_" points="12.3240372 0.452830189 47.5471698 43.1698113 45.8015986 45.3584906 0.603773585 45.3584906"></polygon>
                        </g>
                        <polygon id="XMLID_477_" fill="#FFF2CF" points="59.0188679 6.94339623 53.6603774 7.77358491 59.0188679 8.67924528 59.9245283 14.1132075 60.8301887 8.67924528 66.1886792 7.77358491 60.8301887 6.94339623 59.9245283 1.50943396"></polygon>
                        <polygon id="XMLID_478_" fill="#FFF2CF" points="62.5660377 21.8867925 58.1132075 22.6415094 62.5660377 23.3207547 63.3207547 27.7735849 64 23.3207547 68.4528302 22.6415094 64 21.8867925 63.3207547 17.509434"></polygon>
                        <ellipse id="XMLID_273_" fill="url(#linearGradient-11)" cx="25.1320755" cy="45.2075472" rx="25.0566038" ry="25.0566038"></ellipse>
                        <ellipse id="XMLID_272_" fill="#C47F10" cx="25.1320755" cy="45.2075472" rx="20.9056604" ry="20.9056604"></ellipse>
                        <ellipse id="XMLID_271_" fill="url(#linearGradient-12)" cx="25.7358491" cy="45.1320755" rx="20.3018868" ry="20.3018868"></ellipse>
                        <path d="M36.754717,48.9811321 C36.2264151,47.6981132 35.6981132,46.4150943 35.1698113,45.1320755 C33.9622642,42.1132075 30.490566,43.245283 30.490566,43.245283 C30.4150943,43.1698113 30.4150943,43.0188679 30.3396226,42.9433962 C30.3396226,42.9433962 32.6037736,41.6603774 31.7735849,39.5471698 C31.3207547,38.490566 30.8679245,37.3584906 30.4150943,36.3018868 C29.2830189,33.6603774 27.4716981,32.9811321 24.5283019,34.2641509 C21.2830189,35.6981132 18.1132075,37.1320755 14.9433962,38.6415094 C14.2641509,38.9433962 14.1132075,39.3962264 14.4150943,40 L23.3962264,58.490566 C23.6981132,59.0943396 24.1509434,59.245283 24.6792453,58.9433962 C27.9245283,57.4339623 31.1698113,55.9245283 34.4150943,54.5660377 C37.1320755,53.2830189 37.8867925,51.6226415 36.754717,48.9811321 Z M22.2641509,40.8301887 C22.7169811,40.6037736 23.245283,40.3773585 23.6981132,40.1509434 C24.3773585,39.8490566 24.754717,40 25.0566038,40.6037736 C25.2075472,40.9811321 25.4339623,41.3584906 25.5849057,41.8113208 C25.8113208,42.4150943 25.6603774,42.8679245 25.0566038,43.0943396 C24.6037736,43.3207547 24.0754717,43.5471698 23.6226415,43.6981132 C23.1698113,42.7924528 22.7169811,41.8113208 22.2641509,40.8301887 Z M29.5849057,50.9433962 C28.8301887,51.245283 28.0754717,51.6226415 27.3207547,52 C26.7924528,50.7924528 26.2641509,49.6603774 25.7358491,48.4528302 C26.490566,48.0754717 27.3207547,47.7735849 28.0754717,47.3962264 C28.6792453,47.0943396 29.1320755,47.245283 29.4339623,47.8490566 C29.6603774,48.4528302 29.9622642,49.0566038 30.1886792,49.5849057 C30.4150943,50.2641509 30.1886792,50.7169811 29.5849057,50.9433962 Z" id="XMLID_258_" fill="#C47F10"></path>
                        <path d="M36.4528302,48.6792453 C35.9245283,47.3962264 35.3962264,46.1132075 34.8679245,44.8301887 C33.6603774,41.8113208 30.1886792,42.9433962 30.1886792,42.9433962 C30.1132075,42.8679245 30.1132075,42.7169811 30.0377358,42.6415094 C30.0377358,42.6415094 32.3018868,41.3584906 31.4716981,39.245283 C31.0188679,38.1886792 30.5660377,37.0566038 30.1132075,36 C28.9811321,33.3584906 27.1698113,32.6792453 24.2264151,33.9622642 C20.9811321,35.3962264 17.8113208,36.8301887 14.6415094,38.3396226 C13.9622642,38.6415094 13.8113208,39.0943396 14.1132075,39.6981132 L23.0943396,58.1886792 C23.3962264,58.7924528 23.8490566,58.9433962 24.3773585,58.6415094 C27.6226415,57.1320755 30.8679245,55.6226415 34.1132075,54.2641509 C36.8301887,53.0566038 37.5849057,51.3207547 36.4528302,48.6792453 Z M21.9622642,40.5283019 C22.4150943,40.3018868 22.9433962,40.0754717 23.3962264,39.8490566 C24.0754717,39.5471698 24.4528302,39.6981132 24.754717,40.3018868 C24.9056604,40.6792453 25.1320755,41.0566038 25.2830189,41.509434 C25.509434,42.1132075 25.3584906,42.5660377 24.754717,42.7924528 C24.3018868,43.0188679 23.7735849,43.245283 23.3207547,43.3962264 C22.8679245,42.490566 22.4150943,41.509434 21.9622642,40.5283019 Z M29.2830189,50.6415094 C28.5283019,50.9433962 27.7735849,51.3207547 27.0188679,51.6981132 C26.490566,50.490566 25.9622642,49.3584906 25.4339623,48.1509434 C26.1886792,47.7735849 27.0188679,47.4716981 27.7735849,47.0943396 C28.3773585,46.7924528 28.8301887,46.9433962 29.1320755,47.5471698 C29.3584906,48.1509434 29.6603774,48.754717 29.8867925,49.2830189 C30.1132075,49.9622642 29.9622642,50.4150943 29.2830189,50.6415094 Z" id="XMLID_254_" fill="url(#linearGradient-13)"></path>
                        <polygon id="XMLID_253_" fill="#FFF2CF" points="14.6415094 30.490566 8.98113208 31.3207547 14.6415094 32.3773585 15.4716981 38.1132075 16.5283019 32.3773585 22.2641509 31.5471698 16.5283019 30.490566 15.6981132 24.8301887"></polygon>
                        <polygon id="XMLID_251_" fill="#FFF2CF" points="62.2641509 42.9433962 58.7169811 43.4716981 62.1886792 44.0754717 62.7169811 47.6226415 63.3962264 44.0754717 66.9433962 43.5471698 63.3962264 42.9433962 62.8679245 39.3962264"></polygon>
                        <g id="XMLID_882_" transform="translate(67.924528, 57.358491)">
                            <g id="XMLID_424_" transform="translate(0.000000, 2.264151)">
                                <g id="XMLID_423_">
                                    <polyline id="XMLID_398_" fill="url(#linearGradient-14)" points="12 10.4150943 5.50943396 5.58490566 0.452830189 7.09433962 12 10.4150943"></polyline>
                                    <polyline id="XMLID_396_" fill="url(#linearGradient-15)" points="12 10.4150943 5.50943396 5.58490566 5.58490566 0.226415094 12 10.4150943"></polyline>
                                    <polyline id="XMLID_393_" fill="url(#linearGradient-16)" points="12 10.4150943 1.96226415 10.490566 0.452830189 7.09433962 12 10.4150943"></polyline>
                                    <polyline id="XMLID_388_" fill="url(#linearGradient-17)" points="12 10.4150943 5.58490566 0.226415094 9.20754717 0.603773585 12 10.4150943"></polyline>
                                    <polygon id="XMLID_385_" fill="url(#linearGradient-18)" points="0.452830189 7.09433962 5.50943396 5.58490566 2.94339623 3.69811321"></polygon>
                                </g>
                                <polygon id="XMLID_382_" fill="url(#linearGradient-19)" points="2.94339623 3.69811321 5.50943396 5.58490566 5.58490566 0.226415094"></polygon>
                            </g>
                            <polygon id="XMLID_400_" fill="#FFF2CF" points="5.58490566 2.56603774 3.69811321 2.86792453 5.58490566 3.16981132 5.88679245 5.05660377 6.18867925 3.16981132 8.0754717 2.86792453 6.18867925 2.56603774 5.88679245 0.679245283"></polygon>
                        </g>
                        <g id="XMLID_883_" transform="translate(54.339623, 52.075472)">
                            <polyline id="XMLID_364_" fill="url(#linearGradient-20)" points="17.6603774 18.5660377 7.9245283 10.7924528 0.0754716981 12.9056604 17.6603774 18.5660377"></polyline>
                            <polyline id="XMLID_363_" fill="url(#linearGradient-21)" points="17.6603774 18.5660377 7.9245283 10.7924528 8.30188679 2.64150943 17.6603774 18.5660377"></polyline>
                            <polyline id="XMLID_362_" fill="url(#linearGradient-22)" points="17.6603774 18.5660377 2.18867925 18.1886792 0.0754716981 12.9056604 17.6603774 18.5660377"></polyline>
                            <polyline id="XMLID_361_" fill="url(#linearGradient-23)" points="17.6603774 18.5660377 8.30188679 2.64150943 13.8867925 3.32075472 17.6603774 18.5660377"></polyline>
                            <polygon id="XMLID_360_" fill="url(#linearGradient-24)" points="0.0754716981 12.9056604 7.9245283 10.7924528 4.1509434 7.77358491"></polygon>
                            <polygon id="XMLID_359_" fill="url(#linearGradient-25)" points="4.1509434 7.77358491 7.9245283 10.7924528 8.30188679 2.64150943"></polygon>
                            <polygon id="XMLID_399_" fill="#FFF2CF" points="7.8490566 2.79245283 5.28301887 3.16981132 7.8490566 3.62264151 8.22641509 6.18867925 8.67924528 3.62264151 11.245283 3.24528302 8.67924528 2.79245283 8.30188679 0.226415094"></polygon>
                        </g>
                        <polygon id="XMLID_551_" fill="#FFF2CF" points="35.0188679 22.7924528 31.3207547 23.3962264 35.0188679 24 35.6226415 27.6226415 36.2264151 24 39.9245283 23.3962264 36.2264151 22.7924528 35.6226415 19.0943396"></polygon>
                    </g>
                </g>
            </g>
        </g>
    </g>
</svg>