<?xml version="1.0" encoding="UTF-8" standalone="no"?>
<svg width="20px" height="19px" viewBox="0 0 20 19" version="1.1" xmlns="http://www.w3.org/2000/svg" xmlns:xlink="http://www.w3.org/1999/xlink">
    <!-- Generator: sketchtool 41 (35326) - http://www.bohemiancoding.com/sketch -->
    <title>5DB1AD65-548E-4BC6-90EA-D6DB41265DBE</title>
    <desc>Created with sketchtool.</desc>
    <defs></defs>
    <g id="Page-1" stroke="none" stroke-width="1" fill="none" fill-rule="evenodd">
        <g id="0.1-Главная-страницы(Витрина)" transform="translate(-779.000000, -566.000000)" fill="#FFCF00">
            <g id="Карточка-4" transform="translate(770.000000, 556.000000)">
                <polygon id="Star" points="19 25 13.1221475 28.0901699 14.2447174 21.545085 9.48943484 16.9098301 16.0610737 15.954915 19 10 21.9389263 15.954915 28.5105652 16.9098301 23.7552826 21.545085 24.8778525 28.0901699"></polygon>
            </g>
        </g>
    </g>
</svg>